\relax 
\providecommand\hyper@newdestlabel[2]{}
\providecommand\HyperFirstAtBeginDocument{\AtBeginDocument}
\HyperFirstAtBeginDocument{\ifx\hyper@anchor\@undefined
\global\let\oldnewlabel\newlabel
\gdef\newlabel#1#2{\newlabelxx{#1}#2}
\gdef\newlabelxx#1#2#3#4#5#6{\oldnewlabel{#1}{{#2}{#3}}}
\AtEndDocument{\ifx\hyper@anchor\@undefined
\let\newlabel\oldnewlabel
\fi}
\fi}
\global\let\hyper@last\relax 
\gdef\HyperFirstAtBeginDocument#1{#1}
\providecommand*\HyPL@Entry[1]{}
\HyPL@Entry{0<</S/D>>}
\providecommand \oddpage@label [2]{}
\xpglanginauxtrue 
\selectlanguage *{english}
\@writefile{toc}{\selectlanguage *{english}}
\xpglanginauxfalse 
\oddpage@label{1}{1}
\pgfsyspdfmark {pgfid1}{3729359}{48199251}
\HyPL@Entry{1<</S/r>>}
\HyPL@Entry{4<</S/D>>}
\newlabel{index::doc}{{}{1}{}{section*.2}{}}
\newlabel{Introduction:id23}{{}{1}{}{section*.3}{}}
\newlabel{Introduction:id24}{{}{1}{}{section*.4}{}}
\newlabel{Introduction:id25}{{}{1}{}{section*.5}{}}
\newlabel{Introduction:id26}{{}{1}{}{section*.6}{}}
\newlabel{Introduction:id27}{{}{1}{}{section*.7}{}}
\newlabel{Introduction:id28}{{}{1}{}{section*.8}{}}
\newlabel{Introduction:id29}{{}{1}{}{section*.9}{}}
\newlabel{Introduction:id30}{{}{1}{}{section*.10}{}}
\newlabel{Introduction:id31}{{}{1}{}{section*.11}{}}
\newlabel{Introduction:id32}{{}{1}{}{section*.12}{}}
\@writefile{toc}{\contentsline {chapter}{\numberline {1}ndaal \sphinxhyphen {} Vulnerabilities \sphinxhyphen {} log4j \sphinxhyphen {} Introduction}{2}{chapter.1}\protected@file@percent }
\@writefile{lof}{\addvspace {10\p@ }}
\@writefile{lot}{\addvspace {10\p@ }}
\newlabel{Introduction:section-introduction}{{1}{2}{ndaal \sphinxhyphen {} Vulnerabilities \sphinxhyphen {} log4j \sphinxhyphen {} Introduction}{chapter.1}{}}
\newlabel{Introduction:id1}{{1}{2}{ndaal \sphinxhyphen {} Vulnerabilities \sphinxhyphen {} log4j \sphinxhyphen {} Introduction}{chapter.1}{}}
\@writefile{toc}{\contentsline {section}{\numberline {1.1}CVE\sphinxhyphen {}2021\sphinxhyphen {}44228}{2}{section.1.1}\protected@file@percent }
\newlabel{Introduction:cve-2021-44228}{{1.1}{2}{CVE\sphinxhyphen {}2021\sphinxhyphen {}44228}{section.1.1}{}}
\newlabel{1.footnote.1}{{1}{2}{CVE\sphinxhyphen {}2021\sphinxhyphen {}44228}{section*.13}{}}
\@writefile{toc}{\contentsline {section}{\numberline {1.2}CVE\sphinxhyphen {}2021\sphinxhyphen {}45046}{3}{section.1.2}\protected@file@percent }
\newlabel{Introduction:cve-2021-45046}{{1.2}{3}{CVE\sphinxhyphen {}2021\sphinxhyphen {}45046}{section.1.2}{}}
\newlabel{footnotemark.1}{{1}{3}{CVE\sphinxhyphen {}2021\sphinxhyphen {}45046}{sphinxfootnotemark.1}{}}
\@writefile{toc}{\contentsline {section}{\numberline {1.3}CVE\sphinxhyphen {}2021\sphinxhyphen {}45105}{3}{section.1.3}\protected@file@percent }
\newlabel{Introduction:cve-2021-45105}{{1.3}{3}{CVE\sphinxhyphen {}2021\sphinxhyphen {}45105}{section.1.3}{}}
\@writefile{toc}{\contentsline {section}{\numberline {1.4}CVE\sphinxhyphen {}2021\sphinxhyphen {}44832}{3}{section.1.4}\protected@file@percent }
\newlabel{Introduction:cve-2021-44832}{{1.4}{3}{CVE\sphinxhyphen {}2021\sphinxhyphen {}44832}{section.1.4}{}}
\newlabel{1.footnote.3}{{3}{3}{CVE\sphinxhyphen {}2021\sphinxhyphen {}45105}{section*.14}{}}
\@writefile{toc}{\contentsline {section}{\numberline {1.5}CVE\sphinxhyphen {}2021\sphinxhyphen {}4104}{4}{section.1.5}\protected@file@percent }
\newlabel{Introduction:cve-2021-4104}{{1.5}{4}{CVE\sphinxhyphen {}2021\sphinxhyphen {}4104}{section.1.5}{}}
\@writefile{toc}{\contentsline {section}{\numberline {1.6}Patch}{4}{section.1.6}\protected@file@percent }
\newlabel{Introduction:patch}{{1.6}{4}{Patch}{section.1.6}{}}
\newlabel{footnotemark.2}{{2}{4}{Patch}{sphinxfootnotemark.2}{}}
\@writefile{toc}{\contentsline {section}{\numberline {1.7}Documentation}{4}{section.1.7}\protected@file@percent }
\newlabel{Introduction:documentation}{{1.7}{4}{Documentation}{section.1.7}{}}
\@writefile{toc}{\contentsline {section}{\numberline {1.8}Other \sphinxhyphen {} similar attack pattern}{4}{section.1.8}\protected@file@percent }
\newlabel{Introduction:other-similar-attack-pattern}{{1.8}{4}{Other \sphinxhyphen {} similar attack pattern}{section.1.8}{}}
\newlabel{1.footnote.2}{{2}{4}{Patch}{section*.15}{}}
\newlabel{1.footnote.4}{{4}{4}{Patch}{section*.16}{}}
\newlabel{1.footnote.5}{{5}{4}{Patch}{section*.17}{}}
\newlabel{1.footnote.7}{{7}{4}{Documentation}{section*.18}{}}
\newlabel{1.footnote.8}{{8}{4}{Documentation}{section*.19}{}}
\newlabel{1.footnote.9}{{9}{4}{Other \sphinxhyphen {} similar attack pattern}{section*.20}{}}
\newlabel{1.footnote.10}{{10}{4}{Other \sphinxhyphen {} similar attack pattern}{section*.21}{}}
\@writefile{toc}{\contentsline {chapter}{\numberline {2}ndaal \sphinxhyphen {} Vulnerabilities \sphinxhyphen {} log4j \sphinxhyphen {} Overview}{6}{chapter.2}\protected@file@percent }
\@writefile{lof}{\addvspace {10\p@ }}
\@writefile{lot}{\addvspace {10\p@ }}
\newlabel{Overview:ndaal-vulnerabilities-log4j-overview}{{2}{6}{ndaal \sphinxhyphen {} Vulnerabilities \sphinxhyphen {} log4j \sphinxhyphen {} Overview}{chapter.2}{}}
\newlabel{Overview::doc}{{2}{6}{ndaal \sphinxhyphen {} Vulnerabilities \sphinxhyphen {} log4j \sphinxhyphen {} Overview}{chapter.2}{}}
\newlabel{Overview:id25}{{2}{6}{ndaal \sphinxhyphen {} Vulnerabilities \sphinxhyphen {} log4j \sphinxhyphen {} Overview}{section*.22}{}}
\newlabel{Overview:id26}{{2}{6}{ndaal \sphinxhyphen {} Vulnerabilities \sphinxhyphen {} log4j \sphinxhyphen {} Overview}{section*.23}{}}
\newlabel{Overview:id27}{{2}{6}{ndaal \sphinxhyphen {} Vulnerabilities \sphinxhyphen {} log4j \sphinxhyphen {} Overview}{section*.24}{}}
\newlabel{Overview:id28}{{2}{6}{ndaal \sphinxhyphen {} Vulnerabilities \sphinxhyphen {} log4j \sphinxhyphen {} Overview}{section*.25}{}}
\newlabel{Overview:id29}{{2}{6}{ndaal \sphinxhyphen {} Vulnerabilities \sphinxhyphen {} log4j \sphinxhyphen {} Overview}{section*.26}{}}
\newlabel{Overview:id30}{{2}{6}{ndaal \sphinxhyphen {} Vulnerabilities \sphinxhyphen {} log4j \sphinxhyphen {} Overview}{section*.27}{}}
\newlabel{Overview:id31}{{2}{6}{ndaal \sphinxhyphen {} Vulnerabilities \sphinxhyphen {} log4j \sphinxhyphen {} Overview}{section*.28}{}}
\newlabel{Overview:id32}{{2}{6}{ndaal \sphinxhyphen {} Vulnerabilities \sphinxhyphen {} log4j \sphinxhyphen {} Overview}{section*.29}{}}
\@writefile{toc}{\contentsline {section}{\numberline {2.1}Summary}{6}{section.2.1}\protected@file@percent }
\newlabel{Overview:summary}{{2.1}{6}{Summary}{section.2.1}{}}
\newlabel{Overview:section-overview}{{2.1}{6}{Summary}{section.2.1}{}}
\@writefile{toc}{\contentsline {section}{\numberline {2.2}Who is Impacted!!}{6}{section.2.2}\protected@file@percent }
\newlabel{Overview:who-is-impacted}{{2.2}{6}{Who is Impacted!!}{section.2.2}{}}
\newlabel{2.footnote.1}{{1}{6}{Summary}{section*.30}{}}
\@writefile{toc}{\contentsline {section}{\numberline {2.3}How the exploit works!!}{7}{section.2.3}\protected@file@percent }
\newlabel{Overview:how-the-exploit-works}{{2.3}{7}{How the exploit works!!}{section.2.3}{}}
\@writefile{toc}{\contentsline {section}{\numberline {2.4}Exploit Requirements}{7}{section.2.4}\protected@file@percent }
\newlabel{Overview:exploit-requirements}{{2.4}{7}{Exploit Requirements}{section.2.4}{}}
\newlabel{footnotemark.3}{{3}{7}{Exploit Requirements}{sphinxfootnotemark.3}{}}
\@writefile{toc}{\contentsline {section}{\numberline {2.5}Exploit Steps}{7}{section.2.5}\protected@file@percent }
\newlabel{Overview:exploit-steps}{{2.5}{7}{Exploit Steps}{section.2.5}{}}
\newlabel{2.footnote.2}{{2}{7}{Exploit Requirements}{section*.31}{}}
\@writefile{toc}{\contentsline {section}{\numberline {2.6}How to mitigate}{8}{section.2.6}\protected@file@percent }
\newlabel{Overview:how-to-mitigate}{{2.6}{8}{How to mitigate}{section.2.6}{}}
\newlabel{2.footnote.3}{{3}{8}{How to mitigate}{section*.32}{}}
\newlabel{2.footnote.7}{{7}{8}{How to mitigate}{section*.33}{}}
\newlabel{2.footnote.4}{{4}{8}{How to mitigate}{section*.34}{}}
\newlabel{2.footnote.5}{{5}{8}{How to mitigate}{section*.35}{}}
\newlabel{2.footnote.6}{{6}{8}{How to mitigate}{section*.36}{}}
\@writefile{toc}{\contentsline {section}{\numberline {2.7}Timeline}{9}{section.2.7}\protected@file@percent }
\newlabel{Overview:timeline}{{2.7}{9}{Timeline}{section.2.7}{}}
\newlabel{footnotemark.4}{{4}{9}{Timeline}{sphinxfootnotemark.4}{}}
\newlabel{footnotemark.5}{{5}{9}{Timeline}{sphinxfootnotemark.5}{}}
\newlabel{footnotemark.6}{{6}{9}{Timeline}{sphinxfootnotemark.6}{}}
\newlabel{2.footnote.9}{{9}{9}{Timeline}{section*.37}{}}
\newlabel{2.footnote.10}{{10}{9}{Timeline}{section*.38}{}}
\newlabel{2.footnote.8}{{8}{9}{Timeline}{section*.39}{}}
\@writefile{toc}{\contentsline {chapter}{\numberline {3}ndaal \sphinxhyphen {} Vulnerabilities \sphinxhyphen {} log4j \sphinxhyphen {} Check}{10}{chapter.3}\protected@file@percent }
\@writefile{lof}{\addvspace {10\p@ }}
\@writefile{lot}{\addvspace {10\p@ }}
\newlabel{Check:ndaal-vulnerabilities-log4j-check}{{3}{10}{ndaal \sphinxhyphen {} Vulnerabilities \sphinxhyphen {} log4j \sphinxhyphen {} Check}{chapter.3}{}}
\newlabel{Check::doc}{{3}{10}{ndaal \sphinxhyphen {} Vulnerabilities \sphinxhyphen {} log4j \sphinxhyphen {} Check}{chapter.3}{}}
\newlabel{Check:id79}{{3}{10}{ndaal \sphinxhyphen {} Vulnerabilities \sphinxhyphen {} log4j \sphinxhyphen {} Check}{section*.40}{}}
\newlabel{Check:id80}{{3}{10}{ndaal \sphinxhyphen {} Vulnerabilities \sphinxhyphen {} log4j \sphinxhyphen {} Check}{section*.41}{}}
\newlabel{Check:id81}{{3}{10}{ndaal \sphinxhyphen {} Vulnerabilities \sphinxhyphen {} log4j \sphinxhyphen {} Check}{section*.42}{}}
\newlabel{Check:id82}{{3}{10}{ndaal \sphinxhyphen {} Vulnerabilities \sphinxhyphen {} log4j \sphinxhyphen {} Check}{section*.43}{}}
\newlabel{Check:id83}{{3}{10}{ndaal \sphinxhyphen {} Vulnerabilities \sphinxhyphen {} log4j \sphinxhyphen {} Check}{section*.44}{}}
\newlabel{Check:id84}{{3}{10}{ndaal \sphinxhyphen {} Vulnerabilities \sphinxhyphen {} log4j \sphinxhyphen {} Check}{section*.45}{}}
\newlabel{Check:id85}{{3}{10}{ndaal \sphinxhyphen {} Vulnerabilities \sphinxhyphen {} log4j \sphinxhyphen {} Check}{section*.46}{}}
\newlabel{Check:id86}{{3}{10}{ndaal \sphinxhyphen {} Vulnerabilities \sphinxhyphen {} log4j \sphinxhyphen {} Check}{section*.47}{}}
\newlabel{Check:id87}{{3}{10}{ndaal \sphinxhyphen {} Vulnerabilities \sphinxhyphen {} log4j \sphinxhyphen {} Check}{section*.48}{}}
\newlabel{Check:id88}{{3}{10}{ndaal \sphinxhyphen {} Vulnerabilities \sphinxhyphen {} log4j \sphinxhyphen {} Check}{section*.49}{}}
\newlabel{Check:id89}{{3}{10}{ndaal \sphinxhyphen {} Vulnerabilities \sphinxhyphen {} log4j \sphinxhyphen {} Check}{section*.50}{}}
\newlabel{Check:id90}{{3}{10}{ndaal \sphinxhyphen {} Vulnerabilities \sphinxhyphen {} log4j \sphinxhyphen {} Check}{section*.51}{}}
\newlabel{Check:id91}{{3}{10}{ndaal \sphinxhyphen {} Vulnerabilities \sphinxhyphen {} log4j \sphinxhyphen {} Check}{section*.52}{}}
\newlabel{Check:id92}{{3}{10}{ndaal \sphinxhyphen {} Vulnerabilities \sphinxhyphen {} log4j \sphinxhyphen {} Check}{section*.53}{}}
\newlabel{Check:id93}{{3}{10}{ndaal \sphinxhyphen {} Vulnerabilities \sphinxhyphen {} log4j \sphinxhyphen {} Check}{section*.54}{}}
\newlabel{Check:id94}{{3}{10}{ndaal \sphinxhyphen {} Vulnerabilities \sphinxhyphen {} log4j \sphinxhyphen {} Check}{section*.55}{}}
\newlabel{Check:id95}{{3}{10}{ndaal \sphinxhyphen {} Vulnerabilities \sphinxhyphen {} log4j \sphinxhyphen {} Check}{section*.56}{}}
\newlabel{Check:id96}{{3}{10}{ndaal \sphinxhyphen {} Vulnerabilities \sphinxhyphen {} log4j \sphinxhyphen {} Check}{section*.57}{}}
\@writefile{toc}{\contentsline {section}{\numberline {3.1}What are the Limitations of Binary Based Identification?}{10}{section.3.1}\protected@file@percent }
\newlabel{Check:what-are-the-limitations-of-binary-based-identification}{{3.1}{10}{What are the Limitations of Binary Based Identification?}{section.3.1}{}}
\newlabel{Check:section-overview}{{3.1}{10}{What are the Limitations of Binary Based Identification?}{section.3.1}{}}
\@writefile{toc}{\contentsline {section}{\numberline {3.2}ndaal \sphinxhyphen {} Vulnerabilities \sphinxhyphen {} log4j \sphinxhyphen {} Check}{11}{section.3.2}\protected@file@percent }
\newlabel{Check:id2}{{3.2}{11}{ndaal \sphinxhyphen {} Vulnerabilities \sphinxhyphen {} log4j \sphinxhyphen {} Check}{section.3.2}{}}
\newlabel{3.footnote.20}{{20}{11}{What are the Limitations of Binary Based Identification?}{section*.58}{}}
\newlabel{3.footnote.1}{{1}{11}{ndaal \sphinxhyphen {} Vulnerabilities \sphinxhyphen {} log4j \sphinxhyphen {} Check}{section*.59}{}}
\newlabel{3.footnote.2}{{2}{11}{ndaal \sphinxhyphen {} Vulnerabilities \sphinxhyphen {} log4j \sphinxhyphen {} Check}{section*.60}{}}
\newlabel{3.footnote.3}{{3}{11}{ndaal \sphinxhyphen {} Vulnerabilities \sphinxhyphen {} log4j \sphinxhyphen {} Check}{section*.61}{}}
\newlabel{3.footnote.4}{{4}{11}{ndaal \sphinxhyphen {} Vulnerabilities \sphinxhyphen {} log4j \sphinxhyphen {} Check}{section*.62}{}}
\newlabel{3.footnote.5}{{5}{11}{ndaal \sphinxhyphen {} Vulnerabilities \sphinxhyphen {} log4j \sphinxhyphen {} Check}{section*.63}{}}
\newlabel{3.footnote.6}{{6}{11}{ndaal \sphinxhyphen {} Vulnerabilities \sphinxhyphen {} log4j \sphinxhyphen {} Check}{section*.64}{}}
\newlabel{3.footnote.7}{{7}{11}{ndaal \sphinxhyphen {} Vulnerabilities \sphinxhyphen {} log4j \sphinxhyphen {} Check}{section*.65}{}}
\newlabel{3.footnote.8}{{8}{11}{ndaal \sphinxhyphen {} Vulnerabilities \sphinxhyphen {} log4j \sphinxhyphen {} Check}{section*.66}{}}
\newlabel{3.footnote.9}{{9}{11}{ndaal \sphinxhyphen {} Vulnerabilities \sphinxhyphen {} log4j \sphinxhyphen {} Check}{section*.67}{}}
\newlabel{3.footnote.10}{{10}{11}{ndaal \sphinxhyphen {} Vulnerabilities \sphinxhyphen {} log4j \sphinxhyphen {} Check}{section*.68}{}}
\newlabel{3.footnote.11}{{11}{11}{ndaal \sphinxhyphen {} Vulnerabilities \sphinxhyphen {} log4j \sphinxhyphen {} Check}{section*.69}{}}
\newlabel{3.footnote.12}{{12}{11}{ndaal \sphinxhyphen {} Vulnerabilities \sphinxhyphen {} log4j \sphinxhyphen {} Check}{section*.70}{}}
\newlabel{3.footnote.13}{{13}{11}{ndaal \sphinxhyphen {} Vulnerabilities \sphinxhyphen {} log4j \sphinxhyphen {} Check}{section*.71}{}}
\@writefile{toc}{\contentsline {subsection}{\numberline {3.2.1}https://github.com/fullhunt/log4j\sphinxhyphen {}scan}{12}{subsection.3.2.1}\protected@file@percent }
\newlabel{Check:https-github-com-fullhunt-log4j-scan}{{3.2.1}{12}{https://github.com/fullhunt/log4j\sphinxhyphen {}scan}{subsection.3.2.1}{}}
\@writefile{toc}{\contentsline {subsubsection}{Features}{12}{subsubsection*.74}\protected@file@percent }
\newlabel{Check:features}{{3.2.1}{12}{Features}{subsubsection*.74}{}}
\@writefile{toc}{\contentsline {subsubsection}{Description}{12}{subsubsection*.75}\protected@file@percent }
\newlabel{Check:description}{{3.2.1}{12}{Description}{subsubsection*.75}{}}
\@writefile{toc}{\contentsline {subsubsection}{Impression}{12}{subsubsection*.76}\protected@file@percent }
\newlabel{Check:impression}{{3.2.1}{12}{Impression}{subsubsection*.76}{}}
\@writefile{toc}{\contentsline {subsection}{\numberline {3.2.2}https://github.com/Neo23x0/log4shell\sphinxhyphen {}detector}{12}{subsection.3.2.2}\protected@file@percent }
\newlabel{Check:https-github-com-neo23x0-log4shell-detector}{{3.2.2}{12}{https://github.com/Neo23x0/log4shell\sphinxhyphen {}detector}{subsection.3.2.2}{}}
\@writefile{toc}{\contentsline {subsubsection}{Features}{12}{subsubsection*.77}\protected@file@percent }
\newlabel{Check:id18}{{3.2.2}{12}{Features}{subsubsection*.77}{}}
\newlabel{3.footnote.14}{{14}{12}{ndaal \sphinxhyphen {} Vulnerabilities \sphinxhyphen {} log4j \sphinxhyphen {} Check}{section*.72}{}}
\newlabel{3.footnote.15}{{15}{12}{ndaal \sphinxhyphen {} Vulnerabilities \sphinxhyphen {} log4j \sphinxhyphen {} Check}{section*.73}{}}
\@writefile{toc}{\contentsline {subsubsection}{Description}{13}{subsubsection*.78}\protected@file@percent }
\newlabel{Check:id19}{{3.2.2}{13}{Description}{subsubsection*.78}{}}
\@writefile{toc}{\contentsline {subsubsection}{Impression}{13}{subsubsection*.79}\protected@file@percent }
\newlabel{Check:id20}{{3.2.2}{13}{Impression}{subsubsection*.79}{}}
\@writefile{toc}{\contentsline {subsection}{\numberline {3.2.3}https://github.com/NorthwaveSecurity/log4jcheck}{13}{subsection.3.2.3}\protected@file@percent }
\newlabel{Check:https-github-com-northwavesecurity-log4jcheck}{{3.2.3}{13}{https://github.com/NorthwaveSecurity/log4jcheck}{subsection.3.2.3}{}}
\@writefile{toc}{\contentsline {subsubsection}{Features}{13}{subsubsection*.80}\protected@file@percent }
\newlabel{Check:id21}{{3.2.3}{13}{Features}{subsubsection*.80}{}}
\@writefile{toc}{\contentsline {subsubsection}{Description}{13}{subsubsection*.81}\protected@file@percent }
\newlabel{Check:id22}{{3.2.3}{13}{Description}{subsubsection*.81}{}}
\@writefile{toc}{\contentsline {subsubsection}{Impression}{14}{subsubsection*.82}\protected@file@percent }
\newlabel{Check:id23}{{3.2.3}{14}{Impression}{subsubsection*.82}{}}
\@writefile{toc}{\contentsline {subsection}{\numberline {3.2.4}https://github.com/hillu/local\sphinxhyphen {}log4j\sphinxhyphen {}vuln\sphinxhyphen {}scanner}{14}{subsection.3.2.4}\protected@file@percent }
\newlabel{Check:https-github-com-hillu-local-log4j-vuln-scanner}{{3.2.4}{14}{https://github.com/hillu/local\sphinxhyphen {}log4j\sphinxhyphen {}vuln\sphinxhyphen {}scanner}{subsection.3.2.4}{}}
\@writefile{toc}{\contentsline {subsubsection}{Features}{14}{subsubsection*.83}\protected@file@percent }
\newlabel{Check:id24}{{3.2.4}{14}{Features}{subsubsection*.83}{}}
\@writefile{toc}{\contentsline {subsubsection}{Description}{14}{subsubsection*.84}\protected@file@percent }
\newlabel{Check:id25}{{3.2.4}{14}{Description}{subsubsection*.84}{}}
\@writefile{toc}{\contentsline {subsubsection}{Impression}{14}{subsubsection*.85}\protected@file@percent }
\newlabel{Check:id26}{{3.2.4}{14}{Impression}{subsubsection*.85}{}}
\@writefile{toc}{\contentsline {subsection}{\numberline {3.2.5}https://github.com/adilsoybali/Log4j\sphinxhyphen {}RCE\sphinxhyphen {}Scanner}{14}{subsection.3.2.5}\protected@file@percent }
\newlabel{Check:https-github-com-adilsoybali-log4j-rce-scanner}{{3.2.5}{14}{https://github.com/adilsoybali/Log4j\sphinxhyphen {}RCE\sphinxhyphen {}Scanner}{subsection.3.2.5}{}}
\@writefile{toc}{\contentsline {subsubsection}{Features}{14}{subsubsection*.86}\protected@file@percent }
\newlabel{Check:id27}{{3.2.5}{14}{Features}{subsubsection*.86}{}}
\@writefile{toc}{\contentsline {subsubsection}{Description}{14}{subsubsection*.87}\protected@file@percent }
\newlabel{Check:id28}{{3.2.5}{14}{Description}{subsubsection*.87}{}}
\@writefile{toc}{\contentsline {subsubsection}{Impression}{14}{subsubsection*.88}\protected@file@percent }
\newlabel{Check:id29}{{3.2.5}{14}{Impression}{subsubsection*.88}{}}
\@writefile{toc}{\contentsline {subsection}{\numberline {3.2.6}https://github.com/takito1812/log4j\sphinxhyphen {}detect}{14}{subsection.3.2.6}\protected@file@percent }
\newlabel{Check:https-github-com-takito1812-log4j-detect}{{3.2.6}{14}{https://github.com/takito1812/log4j\sphinxhyphen {}detect}{subsection.3.2.6}{}}
\@writefile{toc}{\contentsline {subsubsection}{Features}{14}{subsubsection*.89}\protected@file@percent }
\newlabel{Check:id30}{{3.2.6}{14}{Features}{subsubsection*.89}{}}
\@writefile{toc}{\contentsline {subsubsection}{Impression}{15}{subsubsection*.90}\protected@file@percent }
\newlabel{Check:id31}{{3.2.6}{15}{Impression}{subsubsection*.90}{}}
\@writefile{toc}{\contentsline {subsection}{\numberline {3.2.7}https://github.com/Diverto/nse\sphinxhyphen {}log4shell}{15}{subsection.3.2.7}\protected@file@percent }
\newlabel{Check:https-github-com-diverto-nse-log4shell}{{3.2.7}{15}{https://github.com/Diverto/nse\sphinxhyphen {}log4shell}{subsection.3.2.7}{}}
\@writefile{toc}{\contentsline {subsubsection}{Features}{15}{subsubsection*.91}\protected@file@percent }
\newlabel{Check:id32}{{3.2.7}{15}{Features}{subsubsection*.91}{}}
\@writefile{toc}{\contentsline {subsubsection}{Impression}{15}{subsubsection*.92}\protected@file@percent }
\newlabel{Check:id33}{{3.2.7}{15}{Impression}{subsubsection*.92}{}}
\@writefile{toc}{\contentsline {subsection}{\numberline {3.2.8}https://github.com/mergebase/log4j\sphinxhyphen {}detector}{15}{subsection.3.2.8}\protected@file@percent }
\newlabel{Check:https-github-com-mergebase-log4j-detector}{{3.2.8}{15}{https://github.com/mergebase/log4j\sphinxhyphen {}detector}{subsection.3.2.8}{}}
\@writefile{toc}{\contentsline {subsubsection}{Features}{15}{subsubsection*.93}\protected@file@percent }
\newlabel{Check:id34}{{3.2.8}{15}{Features}{subsubsection*.93}{}}
\@writefile{toc}{\contentsline {subsubsection}{Impression}{15}{subsubsection*.94}\protected@file@percent }
\newlabel{Check:id37}{{3.2.8}{15}{Impression}{subsubsection*.94}{}}
\@writefile{toc}{\contentsline {subsection}{\numberline {3.2.9}https://github.com/palantir/log4j\sphinxhyphen {}sniffer}{16}{subsection.3.2.9}\protected@file@percent }
\newlabel{Check:https-github-com-palantir-log4j-sniffer}{{3.2.9}{16}{https://github.com/palantir/log4j\sphinxhyphen {}sniffer}{subsection.3.2.9}{}}
\@writefile{toc}{\contentsline {subsubsection}{Features}{16}{subsubsection*.95}\protected@file@percent }
\newlabel{Check:id38}{{3.2.9}{16}{Features}{subsubsection*.95}{}}
\@writefile{toc}{\contentsline {subsubsection}{Impression}{16}{subsubsection*.96}\protected@file@percent }
\newlabel{Check:id39}{{3.2.9}{16}{Impression}{subsubsection*.96}{}}
\@writefile{toc}{\contentsline {subsection}{\numberline {3.2.10}https://github.com/CERTCC/CVE\sphinxhyphen {}2021\sphinxhyphen {}44228\_scanner}{17}{subsection.3.2.10}\protected@file@percent }
\newlabel{Check:https-github-com-certcc-cve-2021-44228-scanner}{{3.2.10}{17}{https://github.com/CERTCC/CVE\sphinxhyphen {}2021\sphinxhyphen {}44228\_scanner}{subsection.3.2.10}{}}
\@writefile{toc}{\contentsline {subsubsection}{Features}{17}{subsubsection*.97}\protected@file@percent }
\newlabel{Check:id40}{{3.2.10}{17}{Features}{subsubsection*.97}{}}
\@writefile{toc}{\contentsline {subsubsection}{Impression}{17}{subsubsection*.98}\protected@file@percent }
\newlabel{Check:id41}{{3.2.10}{17}{Impression}{subsubsection*.98}{}}
\@writefile{toc}{\contentsline {subsection}{\numberline {3.2.11}https://github.com/anchore/grype}{17}{subsection.3.2.11}\protected@file@percent }
\newlabel{Check:https-github-com-anchore-grype}{{3.2.11}{17}{https://github.com/anchore/grype}{subsection.3.2.11}{}}
\@writefile{toc}{\contentsline {subsubsection}{Description}{17}{subsubsection*.100}\protected@file@percent }
\newlabel{Check:id43}{{3.2.11}{17}{Description}{subsubsection*.100}{}}
\newlabel{3.footnote.21}{{21}{17}{Impression}{section*.99}{}}
\@writefile{toc}{\contentsline {subsubsection}{Features}{18}{subsubsection*.101}\protected@file@percent }
\newlabel{Check:id44}{{3.2.11}{18}{Features}{subsubsection*.101}{}}
\@writefile{toc}{\contentsline {subsubsection}{Impression}{18}{subsubsection*.102}\protected@file@percent }
\newlabel{Check:id45}{{3.2.11}{18}{Impression}{subsubsection*.102}{}}
\@writefile{toc}{\contentsline {subsection}{\numberline {3.2.12}https://github.com/jfrog/log4j\sphinxhyphen {}tools}{19}{subsection.3.2.12}\protected@file@percent }
\newlabel{Check:https-github-com-jfrog-log4j-tools}{{3.2.12}{19}{https://github.com/jfrog/log4j\sphinxhyphen {}tools}{subsection.3.2.12}{}}
\@writefile{toc}{\contentsline {subsubsection}{Description}{19}{subsubsection*.103}\protected@file@percent }
\newlabel{Check:id46}{{3.2.12}{19}{Description}{subsubsection*.103}{}}
\@writefile{toc}{\contentsline {subsubsection}{Impression}{19}{subsubsection*.104}\protected@file@percent }
\newlabel{Check:id47}{{3.2.12}{19}{Impression}{subsubsection*.104}{}}
\@writefile{toc}{\contentsline {subsection}{\numberline {3.2.13}https://github.com/CrowdStrike/CAST}{19}{subsection.3.2.13}\protected@file@percent }
\newlabel{Check:https-github-com-crowdstrike-cast}{{3.2.13}{19}{https://github.com/CrowdStrike/CAST}{subsection.3.2.13}{}}
\@writefile{toc}{\contentsline {subsubsection}{Description}{19}{subsubsection*.105}\protected@file@percent }
\newlabel{Check:id48}{{3.2.13}{19}{Description}{subsubsection*.105}{}}
\newlabel{3.footnote.22}{{22}{19}{Description}{section*.106}{}}
\@writefile{toc}{\contentsline {subsubsection}{Impression}{20}{subsubsection*.107}\protected@file@percent }
\newlabel{Check:id52}{{3.2.13}{20}{Impression}{subsubsection*.107}{}}
\@writefile{toc}{\contentsline {subsection}{\numberline {3.2.14}https://github.com/JagarYousef/log4j\sphinxhyphen {}dork\sphinxhyphen {}scanner}{20}{subsection.3.2.14}\protected@file@percent }
\newlabel{Check:https-github-com-jagaryousef-log4j-dork-scanner}{{3.2.14}{20}{https://github.com/JagarYousef/log4j\sphinxhyphen {}dork\sphinxhyphen {}scanner}{subsection.3.2.14}{}}
\@writefile{toc}{\contentsline {subsubsection}{Description}{20}{subsubsection*.108}\protected@file@percent }
\newlabel{Check:id53}{{3.2.14}{20}{Description}{subsubsection*.108}{}}
\@writefile{toc}{\contentsline {subsubsection}{Impression}{20}{subsubsection*.109}\protected@file@percent }
\newlabel{Check:id54}{{3.2.14}{20}{Impression}{subsubsection*.109}{}}
\@writefile{toc}{\contentsline {subsection}{\numberline {3.2.15}https://github.com/Qualys/log4jscanwin}{20}{subsection.3.2.15}\protected@file@percent }
\newlabel{Check:https-github-com-qualys-log4jscanwin}{{3.2.15}{20}{https://github.com/Qualys/log4jscanwin}{subsection.3.2.15}{}}
\@writefile{toc}{\contentsline {subsubsection}{Description}{20}{subsubsection*.112}\protected@file@percent }
\newlabel{Check:id57}{{3.2.15}{20}{Description}{subsubsection*.112}{}}
\newlabel{3.footnote.23}{{23}{20}{Impression}{section*.110}{}}
\newlabel{3.footnote.24}{{24}{20}{Impression}{section*.111}{}}
\@writefile{toc}{\contentsline {subsubsection}{Impression}{21}{subsubsection*.113}\protected@file@percent }
\newlabel{Check:id58}{{3.2.15}{21}{Impression}{subsubsection*.113}{}}
\@writefile{toc}{\contentsline {chapter}{\numberline {4}Automation Solution with Debian Linux for Linux and Windows}{22}{chapter.4}\protected@file@percent }
\@writefile{lof}{\addvspace {10\p@ }}
\@writefile{lot}{\addvspace {10\p@ }}
\newlabel{automation_solutions:automation-solution-with-debian-linux-for-linux-and-windows}{{4}{22}{Automation Solution with Debian Linux for Linux and Windows}{chapter.4}{}}
\newlabel{automation_solutions::doc}{{4}{22}{Automation Solution with Debian Linux for Linux and Windows}{chapter.4}{}}
\newlabel{automation_solutions:id30}{{4}{22}{Automation Solution with Debian Linux for Linux and Windows}{section*.114}{}}
\newlabel{automation_solutions:id31}{{4}{22}{Automation Solution with Debian Linux for Linux and Windows}{section*.115}{}}
\newlabel{automation_solutions:id32}{{4}{22}{Automation Solution with Debian Linux for Linux and Windows}{section*.116}{}}
\newlabel{automation_solutions:id33}{{4}{22}{Automation Solution with Debian Linux for Linux and Windows}{section*.117}{}}
\newlabel{automation_solutions:id34}{{4}{22}{Automation Solution with Debian Linux for Linux and Windows}{section*.118}{}}
\newlabel{automation_solutions:id35}{{4}{22}{Automation Solution with Debian Linux for Linux and Windows}{section*.119}{}}
\newlabel{automation_solutions:id36}{{4}{22}{Automation Solution with Debian Linux for Linux and Windows}{section*.120}{}}
\newlabel{automation_solutions:id37}{{4}{22}{Automation Solution with Debian Linux for Linux and Windows}{section*.121}{}}
\newlabel{automation_solutions:id38}{{4}{22}{Automation Solution with Debian Linux for Linux and Windows}{section*.122}{}}
\newlabel{automation_solutions:id39}{{4}{22}{Automation Solution with Debian Linux for Linux and Windows}{section*.123}{}}
\newlabel{automation_solutions:id40}{{4}{22}{Automation Solution with Debian Linux for Linux and Windows}{section*.124}{}}
\newlabel{automation_solutions:id41}{{4}{22}{Automation Solution with Debian Linux for Linux and Windows}{section*.125}{}}
\newlabel{automation_solutions:id42}{{4}{22}{Automation Solution with Debian Linux for Linux and Windows}{section*.126}{}}
\newlabel{automation_solutions:id43}{{4}{22}{Automation Solution with Debian Linux for Linux and Windows}{section*.127}{}}
\newlabel{automation_solutions:id44}{{4}{22}{Automation Solution with Debian Linux for Linux and Windows}{section*.128}{}}
\newlabel{automation_solutions:id45}{{4}{22}{Automation Solution with Debian Linux for Linux and Windows}{section*.129}{}}
\@writefile{toc}{\contentsline {section}{\numberline {4.1}log4shell\sphinxhyphen {}detector}{22}{section.4.1}\protected@file@percent }
\newlabel{automation_solutions:log4shell-detector}{{4.1}{22}{log4shell\sphinxhyphen {}detector}{section.4.1}{}}
\newlabel{automation_solutions:id1}{{4.1}{22}{log4shell\sphinxhyphen {}detector}{section.4.1}{}}
\newlabel{4.footnote.1}{{1}{22}{log4shell\sphinxhyphen {}detector}{section*.130}{}}
\newlabel{4.footnote.2}{{2}{22}{log4shell\sphinxhyphen {}detector}{section*.131}{}}
\newlabel{4.footnote.3}{{3}{22}{log4shell\sphinxhyphen {}detector}{section*.132}{}}
\newlabel{footnotemark.7}{{7}{23}{log4shell\sphinxhyphen {}detector}{sphinxfootnotemark.7}{}}
\newlabel{footnotemark.8}{{8}{23}{log4shell\sphinxhyphen {}detector}{sphinxfootnotemark.8}{}}
\@writefile{toc}{\contentsline {subsection}{\numberline {4.1.1}Running the log4shell\sphinxhyphen {}detector}{23}{subsection.4.1.1}\protected@file@percent }
\newlabel{automation_solutions:running-the-log4shell-detector}{{4.1.1}{23}{Running the log4shell\sphinxhyphen {}detector}{subsection.4.1.1}{}}
\newlabel{4.footnote.4}{{4}{23}{Running the log4shell\sphinxhyphen {}detector}{section*.133}{}}
\newlabel{4.footnote.5}{{5}{23}{Running the log4shell\sphinxhyphen {}detector}{section*.134}{}}
\newlabel{4.footnote.6}{{6}{23}{Running the log4shell\sphinxhyphen {}detector}{section*.135}{}}
\newlabel{footnotemark.9}{{9}{24}{Running the log4shell\sphinxhyphen {}detector}{sphinxfootnotemark.9}{}}
\gdef \LT@i {\LT@entry 
    {1}{161.23228pt}\LT@entry 
    {1}{322.46458pt}}
\gdef \LT@ii {\LT@entry 
    {1}{483.69687pt}}
\@writefile{toc}{\contentsline {subsection}{\numberline {4.1.2}Log4shell\sphinxhyphen {}detector semantic logic}{26}{subsection.4.1.2}\protected@file@percent }
\newlabel{automation_solutions:log4shell-detector-semantic-logic}{{4.1.2}{26}{Log4shell\sphinxhyphen {}detector semantic logic}{subsection.4.1.2}{}}
\@writefile{lot}{\contentsline {table}{\numberline {1}{Log4shell detector’s loging logic\strut  }}{26}{table.4.1}\protected@file@percent }
\newlabel{automation_solutions:id23}{{1}{26}{Log4shell detector’s loging logic\strut }{table.4.1}{}}
\@writefile{toc}{\contentsline {section}{\numberline {4.2}Extracting log file information with automated tools}{26}{section.4.2}\protected@file@percent }
\newlabel{automation_solutions:extracting-log-file-information-with-automated-tools}{{4.2}{26}{Extracting log file information with automated tools}{section.4.2}{}}
\@writefile{toc}{\contentsline {subsection}{\numberline {4.2.1}Tool 1: Extracting exploited and unprocessed files}{26}{subsection.4.2.1}\protected@file@percent }
\newlabel{automation_solutions:tool-1-extracting-exploited-and-unprocessed-files}{{4.2.1}{26}{Tool 1: Extracting exploited and unprocessed files}{subsection.4.2.1}{}}
\@writefile{lot}{\contentsline {table}{\numberline {2}{Tool 1: First Extraction (Unique Exploited Files)\strut  }}{26}{table.4.2}\protected@file@percent }
\newlabel{automation_solutions:id24}{{2}{26}{Tool 1: First Extraction (Unique Exploited Files)\strut }{table.4.2}{}}
\gdef \LT@iii {\LT@entry 
    {1}{483.69687pt}}
\@writefile{lot}{\contentsline {table}{\numberline {3}{Tool 1: Second Extraction (Unprocessed Files)\strut  }}{27}{table.4.3}\protected@file@percent }
\newlabel{automation_solutions:id25}{{3}{27}{Tool 1: Second Extraction (Unprocessed Files)\strut }{table.4.3}{}}
\@writefile{toc}{\contentsline {subsection}{\numberline {4.2.2}Tool 2: Extract and detect black/grey listed IP addresses}{27}{subsection.4.2.2}\protected@file@percent }
\newlabel{automation_solutions:tool-2-extract-and-detect-black-grey-listed-ip-addresses}{{4.2.2}{27}{Tool 2: Extract and detect black/grey listed IP addresses}{subsection.4.2.2}{}}
\gdef \LT@iv {\LT@entry 
    {1}{483.69687pt}}
\gdef \LT@v {\LT@entry 
    {1}{483.69687pt}}
\@writefile{lot}{\contentsline {table}{\numberline {4}{Tool 2: Black IP’s\strut  }}{28}{table.4.4}\protected@file@percent }
\newlabel{automation_solutions:id26}{{4}{28}{Tool 2: Black IP’s\strut }{table.4.4}{}}
\@writefile{lot}{\contentsline {table}{\numberline {5}{Tool 2: Grey IP’S\strut  }}{28}{table.4.5}\protected@file@percent }
\newlabel{automation_solutions:id27}{{5}{28}{Tool 2: Grey IP’S\strut }{table.4.5}{}}
\@writefile{toc}{\contentsline {section}{\numberline {4.3}What are the Limitations of Binary Based Identification?}{28}{section.4.3}\protected@file@percent }
\newlabel{automation_solutions:what-are-the-limitations-of-binary-based-identification}{{4.3}{28}{What are the Limitations of Binary Based Identification?}{section.4.3}{}}
\@writefile{toc}{\contentsline {section}{\numberline {4.4}Other}{29}{section.4.4}\protected@file@percent }
\newlabel{automation_solutions:other}{{4.4}{29}{Other}{section.4.4}{}}
\@writefile{toc}{\contentsline {section}{\numberline {4.5}log4j\sphinxhyphen {}sniffer}{29}{section.4.5}\protected@file@percent }
\newlabel{automation_solutions:log4j-sniffer}{{4.5}{29}{log4j\sphinxhyphen {}sniffer}{section.4.5}{}}
\newlabel{automation_solutions:chapter-automation-solution-log4j-sniffer}{{4.5}{29}{log4j\sphinxhyphen {}sniffer}{section.4.5}{}}
\newlabel{4.footnote.7}{{7}{29}{Other}{section*.136}{}}
\newlabel{4.footnote.8}{{8}{29}{log4j\sphinxhyphen {}sniffer}{section*.137}{}}
\@writefile{toc}{\contentsline {subsection}{\numberline {4.5.1}Installing the log4j\sphinxhyphen {}sniffer}{30}{subsection.4.5.1}\protected@file@percent }
\newlabel{automation_solutions:installing-the-log4j-sniffer}{{4.5.1}{30}{Installing the log4j\sphinxhyphen {}sniffer}{subsection.4.5.1}{}}
\@writefile{toc}{\contentsline {subsection}{\numberline {4.5.2}log4j\sphinxhyphen {}sniffer on Linux}{30}{subsection.4.5.2}\protected@file@percent }
\newlabel{automation_solutions:log4j-sniffer-on-linux}{{4.5.2}{30}{log4j\sphinxhyphen {}sniffer on Linux}{subsection.4.5.2}{}}
\@writefile{toc}{\contentsline {subsection}{\numberline {4.5.3}log4j\sphinxhyphen {}sniffer on mac}{31}{subsection.4.5.3}\protected@file@percent }
\newlabel{automation_solutions:log4j-sniffer-on-mac}{{4.5.3}{31}{log4j\sphinxhyphen {}sniffer on mac}{subsection.4.5.3}{}}
\@writefile{toc}{\contentsline {subsection}{\numberline {4.5.4}log4j\sphinxhyphen {}sniffer on Windows}{31}{subsection.4.5.4}\protected@file@percent }
\newlabel{automation_solutions:log4j-sniffer-on-windows}{{4.5.4}{31}{log4j\sphinxhyphen {}sniffer on Windows}{subsection.4.5.4}{}}
\gdef \LT@vi {\LT@entry 
    {1}{241.84843pt}\LT@entry 
    {1}{241.84843pt}}
\@writefile{toc}{\contentsline {subsection}{\numberline {4.5.5}log4j\sphinxhyphen {}sniffer primary usage}{32}{subsection.4.5.5}\protected@file@percent }
\newlabel{automation_solutions:log4j-sniffer-primary-usage}{{4.5.5}{32}{log4j\sphinxhyphen {}sniffer primary usage}{subsection.4.5.5}{}}
\newlabel{footnotemark.10}{{10}{32}{log4j\sphinxhyphen {}sniffer primary usage}{sphinxfootnotemark.10}{}}
\@writefile{toc}{\contentsline {subsection}{\numberline {4.5.6}log4j\sphinxhyphen {}sniffer semantic logic}{32}{subsection.4.5.6}\protected@file@percent }
\newlabel{automation_solutions:log4j-sniffer-semantic-logic}{{4.5.6}{32}{log4j\sphinxhyphen {}sniffer semantic logic}{subsection.4.5.6}{}}
\@writefile{lot}{\contentsline {table}{\numberline {6}{Log4j\sphinxhyphen {}sniffer semantic logic\strut  }}{32}{table.4.6}\protected@file@percent }
\newlabel{automation_solutions:id28}{{6}{32}{Log4j\sphinxhyphen {}sniffer semantic logic\strut }{table.4.6}{}}
\gdef \LT@vii {\LT@entry 
    {1}{241.84843pt}\LT@entry 
    {1}{241.84843pt}}
\@writefile{lot}{\contentsline {table}{\numberline {7}{Log4j\sphinxhyphen {}sniffer semantic logic\strut  }}{33}{table.4.7}\protected@file@percent }
\newlabel{automation_solutions:id29}{{7}{33}{Log4j\sphinxhyphen {}sniffer semantic logic\strut }{table.4.7}{}}
\newlabel{footnotemark.11}{{11}{34}{log4j\sphinxhyphen {}sniffer semantic logic}{sphinxfootnotemark.11}{}}
\@writefile{toc}{\contentsline {chapter}{\numberline {5}ndaal \sphinxhyphen {} Vulnerabilities \sphinxhyphen {} log4j \sphinxhyphen {} Block IPs}{35}{chapter.5}\protected@file@percent }
\@writefile{lof}{\addvspace {10\p@ }}
\@writefile{lot}{\addvspace {10\p@ }}
\newlabel{Block_IPs:ndaal-vulnerabilities-log4j-block-ips}{{5}{35}{ndaal \sphinxhyphen {} Vulnerabilities \sphinxhyphen {} log4j \sphinxhyphen {} Block IPs}{chapter.5}{}}
\newlabel{Block_IPs::doc}{{5}{35}{ndaal \sphinxhyphen {} Vulnerabilities \sphinxhyphen {} log4j \sphinxhyphen {} Block IPs}{chapter.5}{}}
\newlabel{Block_IPs:id3}{{5}{35}{ndaal \sphinxhyphen {} Vulnerabilities \sphinxhyphen {} log4j \sphinxhyphen {} Block IPs}{section*.138}{}}
\newlabel{Block_IPs:id4}{{5}{35}{ndaal \sphinxhyphen {} Vulnerabilities \sphinxhyphen {} log4j \sphinxhyphen {} Block IPs}{section*.139}{}}
\@writefile{toc}{\contentsline {section}{\numberline {5.1}ndaal \sphinxhyphen {} Vulnerabilities \sphinxhyphen {} log4j \sphinxhyphen {} Block IPs}{35}{section.5.1}\protected@file@percent }
\newlabel{Block_IPs:section-block-ips}{{5.1}{35}{ndaal \sphinxhyphen {} Vulnerabilities \sphinxhyphen {} log4j \sphinxhyphen {} Block IPs}{section.5.1}{}}
\newlabel{Block_IPs:id1}{{5.1}{35}{ndaal \sphinxhyphen {} Vulnerabilities \sphinxhyphen {} log4j \sphinxhyphen {} Block IPs}{section.5.1}{}}
\@writefile{toc}{\contentsline {chapter}{\numberline {6}ndaal \sphinxhyphen {} Vulnerabilities \sphinxhyphen {} log4j \sphinxhyphen {} Open Source Community}{37}{chapter.6}\protected@file@percent }
\@writefile{lof}{\addvspace {10\p@ }}
\@writefile{lot}{\addvspace {10\p@ }}
\newlabel{Open_Source_Community:ndaal-vulnerabilities-log4j-open-source-community}{{6}{37}{ndaal \sphinxhyphen {} Vulnerabilities \sphinxhyphen {} log4j \sphinxhyphen {} Open Source Community}{chapter.6}{}}
\newlabel{Open_Source_Community::doc}{{6}{37}{ndaal \sphinxhyphen {} Vulnerabilities \sphinxhyphen {} log4j \sphinxhyphen {} Open Source Community}{chapter.6}{}}
\newlabel{Open_Source_Community:id4}{{6}{37}{ndaal \sphinxhyphen {} Vulnerabilities \sphinxhyphen {} log4j \sphinxhyphen {} Open Source Community}{section*.140}{}}
\newlabel{Open_Source_Community:id5}{{6}{37}{ndaal \sphinxhyphen {} Vulnerabilities \sphinxhyphen {} log4j \sphinxhyphen {} Open Source Community}{section*.141}{}}
\newlabel{Open_Source_Community:id6}{{6}{37}{ndaal \sphinxhyphen {} Vulnerabilities \sphinxhyphen {} log4j \sphinxhyphen {} Open Source Community}{section*.142}{}}
\newlabel{Open_Source_Community:id7}{{6}{37}{ndaal \sphinxhyphen {} Vulnerabilities \sphinxhyphen {} log4j \sphinxhyphen {} Open Source Community}{section*.143}{}}
\@writefile{toc}{\contentsline {section}{\numberline {6.1}The Open Source Community will fix it, once again?!}{37}{section.6.1}\protected@file@percent }
\newlabel{Open_Source_Community:the-open-source-community-will-fix-it-once-again}{{6.1}{37}{The Open Source Community will fix it, once again?!}{section.6.1}{}}
\newlabel{Open_Source_Community:section-open-source-community}{{6.1}{37}{The Open Source Community will fix it, once again?!}{section.6.1}{}}
\@writefile{toc}{\contentsline {subsection}{\numberline {6.1.1}Why is that and why is it so hard to patch?}{37}{subsection.6.1.1}\protected@file@percent }
\newlabel{Open_Source_Community:why-is-that-and-why-is-it-so-hard-to-patch}{{6.1.1}{37}{Why is that and why is it so hard to patch?}{subsection.6.1.1}{}}
\newlabel{6.footnote.2}{{2}{37}{The Open Source Community will fix it, once again?!}{section*.144}{}}
\@writefile{toc}{\contentsline {subsection}{\numberline {6.1.2}What exactly is meant by this?}{38}{subsection.6.1.2}\protected@file@percent }
\newlabel{Open_Source_Community:what-exactly-is-meant-by-this}{{6.1.2}{38}{What exactly is meant by this?}{subsection.6.1.2}{}}
\@writefile{toc}{\contentsline {chapter}{\numberline {7}Infosec Mind Maps}{39}{chapter.7}\protected@file@percent }
\@writefile{lof}{\addvspace {10\p@ }}
\@writefile{lot}{\addvspace {10\p@ }}
\newlabel{_MindMap/MindMap:infosec-mind-maps}{{7}{39}{Infosec Mind Maps}{chapter.7}{}}
\newlabel{_MindMap/MindMap::doc}{{7}{39}{Infosec Mind Maps}{chapter.7}{}}
\newlabel{_MindMap/MindMap:id4}{{7}{39}{Infosec Mind Maps}{section*.145}{}}
\newlabel{_MindMap/MindMap:id5}{{7}{39}{Infosec Mind Maps}{section*.146}{}}
\newlabel{_MindMap/MindMap:id6}{{7}{39}{Infosec Mind Maps}{section*.147}{}}
\newlabel{_MindMap/MindMap:id7}{{7}{39}{Infosec Mind Maps}{section*.148}{}}
\newlabel{_MindMap/MindMap:section-java-packages}{{7}{39}{Infosec Mind Maps}{section*.149}{}}
\@writefile{toc}{\contentsline {section}{\numberline {7.1}Decision tree to identify if the code in\sphinxhyphen {}use is vulnerable}{39}{section.7.1}\protected@file@percent }
\newlabel{_MindMap/MindMap:decision-tree-to-identify-if-the-code-in-use-is-vulnerable}{{7.1}{39}{Decision tree to identify if the code in\sphinxhyphen {}use is vulnerable}{section.7.1}{}}
\newlabel{7.footnote.1}{{1}{39}{Infosec Mind Maps}{section*.150}{}}
\@writefile{toc}{\contentsline {section}{\numberline {7.2}How to detect the vulnerability, from the black box or white box perspective}{40}{section.7.2}\protected@file@percent }
\newlabel{_MindMap/MindMap:how-to-detect-the-vulnerability-from-the-black-box-or-white-box-perspective}{{7.2}{40}{How to detect the vulnerability, from the black box or white box perspective}{section.7.2}{}}
\@writefile{toc}{\contentsline {section}{\numberline {7.3}Shielding \& Mitigations against Log4shell}{40}{section.7.3}\protected@file@percent }
\newlabel{_MindMap/MindMap:shielding-mitigations-against-log4shell}{{7.3}{40}{Shielding \& Mitigations against Log4shell}{section.7.3}{}}
\newlabel{footnotemark.12}{{12}{40}{Shielding \& Mitigations against Log4shell}{sphinxfootnotemark.12}{}}
\@writefile{toc}{\contentsline {chapter}{\numberline {8}ndaal \sphinxhyphen {} Vulnerabilities \sphinxhyphen {} log4j \sphinxhyphen {} Advisories}{42}{chapter.8}\protected@file@percent }
\@writefile{lof}{\addvspace {10\p@ }}
\@writefile{lot}{\addvspace {10\p@ }}
\newlabel{Advisories:ndaal-vulnerabilities-log4j-advisories}{{8}{42}{ndaal \sphinxhyphen {} Vulnerabilities \sphinxhyphen {} log4j \sphinxhyphen {} Advisories}{chapter.8}{}}
\newlabel{Advisories::doc}{{8}{42}{ndaal \sphinxhyphen {} Vulnerabilities \sphinxhyphen {} log4j \sphinxhyphen {} Advisories}{chapter.8}{}}
\newlabel{Advisories:id13}{{8}{42}{ndaal \sphinxhyphen {} Vulnerabilities \sphinxhyphen {} log4j \sphinxhyphen {} Advisories}{section*.151}{}}
\newlabel{Advisories:id14}{{8}{42}{ndaal \sphinxhyphen {} Vulnerabilities \sphinxhyphen {} log4j \sphinxhyphen {} Advisories}{section*.152}{}}
\newlabel{Advisories:id15}{{8}{42}{ndaal \sphinxhyphen {} Vulnerabilities \sphinxhyphen {} log4j \sphinxhyphen {} Advisories}{section*.153}{}}
\newlabel{Advisories:id16}{{8}{42}{ndaal \sphinxhyphen {} Vulnerabilities \sphinxhyphen {} log4j \sphinxhyphen {} Advisories}{section*.154}{}}
\newlabel{Advisories:id17}{{8}{42}{ndaal \sphinxhyphen {} Vulnerabilities \sphinxhyphen {} log4j \sphinxhyphen {} Advisories}{section*.155}{}}
\newlabel{Advisories:id18}{{8}{42}{ndaal \sphinxhyphen {} Vulnerabilities \sphinxhyphen {} log4j \sphinxhyphen {} Advisories}{section*.156}{}}
\newlabel{Advisories:id19}{{8}{42}{ndaal \sphinxhyphen {} Vulnerabilities \sphinxhyphen {} log4j \sphinxhyphen {} Advisories}{section*.157}{}}
\newlabel{Advisories:id20}{{8}{42}{ndaal \sphinxhyphen {} Vulnerabilities \sphinxhyphen {} log4j \sphinxhyphen {} Advisories}{section*.158}{}}
\newlabel{Advisories:id21}{{8}{42}{ndaal \sphinxhyphen {} Vulnerabilities \sphinxhyphen {} log4j \sphinxhyphen {} Advisories}{section*.159}{}}
\newlabel{Advisories:id22}{{8}{42}{ndaal \sphinxhyphen {} Vulnerabilities \sphinxhyphen {} log4j \sphinxhyphen {} Advisories}{section*.160}{}}
\newlabel{Advisories:id23}{{8}{42}{ndaal \sphinxhyphen {} Vulnerabilities \sphinxhyphen {} log4j \sphinxhyphen {} Advisories}{section*.161}{}}
\newlabel{Advisories:id24}{{8}{42}{ndaal \sphinxhyphen {} Vulnerabilities \sphinxhyphen {} log4j \sphinxhyphen {} Advisories}{section*.162}{}}
\newlabel{Advisories:id25}{{8}{42}{ndaal \sphinxhyphen {} Vulnerabilities \sphinxhyphen {} log4j \sphinxhyphen {} Advisories}{section*.163}{}}
\newlabel{Advisories:id26}{{8}{42}{ndaal \sphinxhyphen {} Vulnerabilities \sphinxhyphen {} log4j \sphinxhyphen {} Advisories}{section*.164}{}}
\newlabel{Advisories:id27}{{8}{42}{ndaal \sphinxhyphen {} Vulnerabilities \sphinxhyphen {} log4j \sphinxhyphen {} Advisories}{section*.165}{}}
\newlabel{Advisories:id28}{{8}{42}{ndaal \sphinxhyphen {} Vulnerabilities \sphinxhyphen {} log4j \sphinxhyphen {} Advisories}{section*.166}{}}
\newlabel{Advisories:id29}{{8}{42}{ndaal \sphinxhyphen {} Vulnerabilities \sphinxhyphen {} log4j \sphinxhyphen {} Advisories}{section*.167}{}}
\newlabel{Advisories:id30}{{8}{42}{ndaal \sphinxhyphen {} Vulnerabilities \sphinxhyphen {} log4j \sphinxhyphen {} Advisories}{section*.168}{}}
\newlabel{Advisories:id31}{{8}{42}{ndaal \sphinxhyphen {} Vulnerabilities \sphinxhyphen {} log4j \sphinxhyphen {} Advisories}{section*.169}{}}
\newlabel{Advisories:id32}{{8}{42}{ndaal \sphinxhyphen {} Vulnerabilities \sphinxhyphen {} log4j \sphinxhyphen {} Advisories}{section*.170}{}}
\newlabel{Advisories:id33}{{8}{42}{ndaal \sphinxhyphen {} Vulnerabilities \sphinxhyphen {} log4j \sphinxhyphen {} Advisories}{section*.171}{}}
\newlabel{Advisories:id34}{{8}{42}{ndaal \sphinxhyphen {} Vulnerabilities \sphinxhyphen {} log4j \sphinxhyphen {} Advisories}{section*.172}{}}
\newlabel{Advisories:id35}{{8}{42}{ndaal \sphinxhyphen {} Vulnerabilities \sphinxhyphen {} log4j \sphinxhyphen {} Advisories}{section*.173}{}}
\newlabel{Advisories:id36}{{8}{42}{ndaal \sphinxhyphen {} Vulnerabilities \sphinxhyphen {} log4j \sphinxhyphen {} Advisories}{section*.174}{}}
\newlabel{Advisories:id37}{{8}{42}{ndaal \sphinxhyphen {} Vulnerabilities \sphinxhyphen {} log4j \sphinxhyphen {} Advisories}{section*.175}{}}
\newlabel{Advisories:id38}{{8}{42}{ndaal \sphinxhyphen {} Vulnerabilities \sphinxhyphen {} log4j \sphinxhyphen {} Advisories}{section*.176}{}}
\newlabel{Advisories:id39}{{8}{42}{ndaal \sphinxhyphen {} Vulnerabilities \sphinxhyphen {} log4j \sphinxhyphen {} Advisories}{section*.177}{}}
\newlabel{Advisories:id40}{{8}{42}{ndaal \sphinxhyphen {} Vulnerabilities \sphinxhyphen {} log4j \sphinxhyphen {} Advisories}{section*.178}{}}
\newlabel{Advisories:id41}{{8}{42}{ndaal \sphinxhyphen {} Vulnerabilities \sphinxhyphen {} log4j \sphinxhyphen {} Advisories}{section*.179}{}}
\newlabel{Advisories:id42}{{8}{43}{ndaal \sphinxhyphen {} Vulnerabilities \sphinxhyphen {} log4j \sphinxhyphen {} Advisories}{section*.180}{}}
\@writefile{toc}{\contentsline {section}{\numberline {8.1}ndaal \sphinxhyphen {} Vulnerabilities \sphinxhyphen {} log4j \sphinxhyphen {} Advisories}{43}{section.8.1}\protected@file@percent }
\newlabel{Advisories:section-vulnerabilities-log4j-advisories}{{8.1}{43}{ndaal \sphinxhyphen {} Vulnerabilities \sphinxhyphen {} log4j \sphinxhyphen {} Advisories}{section.8.1}{}}
\newlabel{Advisories:id1}{{8.1}{43}{ndaal \sphinxhyphen {} Vulnerabilities \sphinxhyphen {} log4j \sphinxhyphen {} Advisories}{section.8.1}{}}
\@writefile{toc}{\contentsline {subsection}{\numberline {8.1.1}0\sphinxhyphen {}9}{43}{subsection.8.1.1}\protected@file@percent }
\newlabel{Advisories:id2}{{8.1.1}{43}{0\sphinxhyphen {}9}{subsection.8.1.1}{}}
\@writefile{toc}{\contentsline {subsection}{\numberline {8.1.2}A}{43}{subsection.8.1.2}\protected@file@percent }
\newlabel{Advisories:a}{{8.1.2}{43}{A}{subsection.8.1.2}{}}
\@writefile{toc}{\contentsline {subsection}{\numberline {8.1.3}B}{47}{subsection.8.1.3}\protected@file@percent }
\newlabel{Advisories:b}{{8.1.3}{47}{B}{subsection.8.1.3}{}}
\@writefile{toc}{\contentsline {subsection}{\numberline {8.1.4}C}{55}{subsection.8.1.4}\protected@file@percent }
\newlabel{Advisories:c}{{8.1.4}{55}{C}{subsection.8.1.4}{}}
\@writefile{toc}{\contentsline {subsection}{\numberline {8.1.5}D}{58}{subsection.8.1.5}\protected@file@percent }
\newlabel{Advisories:d}{{8.1.5}{58}{D}{subsection.8.1.5}{}}
\@writefile{toc}{\contentsline {subsection}{\numberline {8.1.6}E}{59}{subsection.8.1.6}\protected@file@percent }
\newlabel{Advisories:e}{{8.1.6}{59}{E}{subsection.8.1.6}{}}
\@writefile{toc}{\contentsline {subsection}{\numberline {8.1.7}F}{60}{subsection.8.1.7}\protected@file@percent }
\newlabel{Advisories:f}{{8.1.7}{60}{F}{subsection.8.1.7}{}}
\@writefile{toc}{\contentsline {subsection}{\numberline {8.1.8}G}{61}{subsection.8.1.8}\protected@file@percent }
\newlabel{Advisories:g}{{8.1.8}{61}{G}{subsection.8.1.8}{}}
\@writefile{toc}{\contentsline {subsection}{\numberline {8.1.9}H}{62}{subsection.8.1.9}\protected@file@percent }
\newlabel{Advisories:h}{{8.1.9}{62}{H}{subsection.8.1.9}{}}
\@writefile{toc}{\contentsline {subsection}{\numberline {8.1.10}I}{63}{subsection.8.1.10}\protected@file@percent }
\newlabel{Advisories:i}{{8.1.10}{63}{I}{subsection.8.1.10}{}}
\@writefile{toc}{\contentsline {subsection}{\numberline {8.1.11}J}{65}{subsection.8.1.11}\protected@file@percent }
\newlabel{Advisories:j}{{8.1.11}{65}{J}{subsection.8.1.11}{}}
\@writefile{toc}{\contentsline {subsection}{\numberline {8.1.12}K}{66}{subsection.8.1.12}\protected@file@percent }
\newlabel{Advisories:k}{{8.1.12}{66}{K}{subsection.8.1.12}{}}
\@writefile{toc}{\contentsline {subsection}{\numberline {8.1.13}L}{67}{subsection.8.1.13}\protected@file@percent }
\newlabel{Advisories:l}{{8.1.13}{67}{L}{subsection.8.1.13}{}}
\@writefile{toc}{\contentsline {subsection}{\numberline {8.1.14}M}{68}{subsection.8.1.14}\protected@file@percent }
\newlabel{Advisories:m}{{8.1.14}{68}{M}{subsection.8.1.14}{}}
\@writefile{toc}{\contentsline {subsection}{\numberline {8.1.15}N}{70}{subsection.8.1.15}\protected@file@percent }
\newlabel{Advisories:n}{{8.1.15}{70}{N}{subsection.8.1.15}{}}
\@writefile{toc}{\contentsline {subsection}{\numberline {8.1.16}O}{71}{subsection.8.1.16}\protected@file@percent }
\newlabel{Advisories:o}{{8.1.16}{71}{O}{subsection.8.1.16}{}}
\@writefile{toc}{\contentsline {subsection}{\numberline {8.1.17}P}{72}{subsection.8.1.17}\protected@file@percent }
\newlabel{Advisories:p}{{8.1.17}{72}{P}{subsection.8.1.17}{}}
\@writefile{toc}{\contentsline {subsection}{\numberline {8.1.18}Q}{73}{subsection.8.1.18}\protected@file@percent }
\newlabel{Advisories:q}{{8.1.18}{73}{Q}{subsection.8.1.18}{}}
\@writefile{toc}{\contentsline {subsection}{\numberline {8.1.19}R}{74}{subsection.8.1.19}\protected@file@percent }
\newlabel{Advisories:r}{{8.1.19}{74}{R}{subsection.8.1.19}{}}
\@writefile{toc}{\contentsline {subsection}{\numberline {8.1.20}S}{75}{subsection.8.1.20}\protected@file@percent }
\newlabel{Advisories:s}{{8.1.20}{75}{S}{subsection.8.1.20}{}}
\@writefile{toc}{\contentsline {subsection}{\numberline {8.1.21}T}{79}{subsection.8.1.21}\protected@file@percent }
\newlabel{Advisories:t}{{8.1.21}{79}{T}{subsection.8.1.21}{}}
\@writefile{toc}{\contentsline {subsection}{\numberline {8.1.22}U}{80}{subsection.8.1.22}\protected@file@percent }
\newlabel{Advisories:u}{{8.1.22}{80}{U}{subsection.8.1.22}{}}
\@writefile{toc}{\contentsline {subsection}{\numberline {8.1.23}V}{80}{subsection.8.1.23}\protected@file@percent }
\newlabel{Advisories:v}{{8.1.23}{80}{V}{subsection.8.1.23}{}}
\@writefile{toc}{\contentsline {subsection}{\numberline {8.1.24}W}{81}{subsection.8.1.24}\protected@file@percent }
\newlabel{Advisories:w}{{8.1.24}{81}{W}{subsection.8.1.24}{}}
\@writefile{toc}{\contentsline {subsection}{\numberline {8.1.25}X}{82}{subsection.8.1.25}\protected@file@percent }
\newlabel{Advisories:x}{{8.1.25}{82}{X}{subsection.8.1.25}{}}
\@writefile{toc}{\contentsline {subsection}{\numberline {8.1.26}Y}{83}{subsection.8.1.26}\protected@file@percent }
\newlabel{Advisories:y}{{8.1.26}{83}{Y}{subsection.8.1.26}{}}
\@writefile{toc}{\contentsline {subsection}{\numberline {8.1.27}Z}{83}{subsection.8.1.27}\protected@file@percent }
\newlabel{Advisories:z}{{8.1.27}{83}{Z}{subsection.8.1.27}{}}
\@writefile{toc}{\contentsline {section}{\numberline {8.2}ndaal \sphinxhyphen {} Vulnerabilities \sphinxhyphen {} log4j \sphinxhyphen {} Other great resources}{84}{section.8.2}\protected@file@percent }
\newlabel{Advisories:ndaal-vulnerabilities-log4j-other-great-resources}{{8.2}{84}{ndaal \sphinxhyphen {} Vulnerabilities \sphinxhyphen {} log4j \sphinxhyphen {} Other great resources}{section.8.2}{}}
\newlabel{8.footnote.1}{{1}{84}{ndaal \sphinxhyphen {} Vulnerabilities \sphinxhyphen {} log4j \sphinxhyphen {} Other great resources}{section*.181}{}}
\newlabel{8.footnote.5}{{5}{84}{ndaal \sphinxhyphen {} Vulnerabilities \sphinxhyphen {} log4j \sphinxhyphen {} Other great resources}{section*.182}{}}
\newlabel{8.footnote.2}{{2}{84}{ndaal \sphinxhyphen {} Vulnerabilities \sphinxhyphen {} log4j \sphinxhyphen {} Other great resources}{section*.183}{}}
\newlabel{8.footnote.3}{{3}{84}{ndaal \sphinxhyphen {} Vulnerabilities \sphinxhyphen {} log4j \sphinxhyphen {} Other great resources}{section*.184}{}}
\newlabel{8.footnote.4}{{4}{84}{ndaal \sphinxhyphen {} Vulnerabilities \sphinxhyphen {} log4j \sphinxhyphen {} Other great resources}{section*.185}{}}
\@writefile{toc}{\contentsline {chapter}{\numberline {9}Pattern}{85}{chapter.9}\protected@file@percent }
\@writefile{lof}{\addvspace {10\p@ }}
\@writefile{lot}{\addvspace {10\p@ }}
\newlabel{_pattern/Pattern:pattern}{{9}{85}{Pattern}{chapter.9}{}}
\newlabel{_pattern/Pattern::doc}{{9}{85}{Pattern}{chapter.9}{}}
\newlabel{_pattern/Pattern:id7}{{9}{85}{Pattern}{section*.186}{}}
\newlabel{_pattern/Pattern:id8}{{9}{85}{Pattern}{section*.187}{}}
\newlabel{_pattern/Pattern:id9}{{9}{85}{Pattern}{section*.188}{}}
\newlabel{_pattern/Pattern:section-pattern}{{9}{85}{Pattern}{section*.189}{}}
\@writefile{toc}{\contentsline {section}{\numberline {9.1}log4j \sphinxhyphen {} Search Patterns}{86}{section.9.1}\protected@file@percent }
\newlabel{_pattern/Pattern:log4j-search-patterns}{{9.1}{86}{log4j \sphinxhyphen {} Search Patterns}{section.9.1}{}}
\@writefile{lof}{\setforeignlanguage {english}}
\@writefile{lot}{\setforeignlanguage {english}}
\@writefile{lot}{\contentsline {table}{\numberline {1}{\ignorespaces log4j Search Patterns}}{86}{table.9.1}\protected@file@percent }
\newlabel{_pattern/Pattern:id5}{{1}{86}{log4j \sphinxhyphen {} Search Patterns}{table.9.1}{}}
\newlabel{9.footnote.2}{{2}{87}{}{section*.190}{}}
\@writefile{toc}{\contentsline {section}{\numberline {9.2}log4j \sphinxhyphen {} Callback Domains}{88}{section.9.2}\protected@file@percent }
\newlabel{_pattern/Pattern:log4j-callback-domains}{{9.2}{88}{log4j \sphinxhyphen {} Callback Domains}{section.9.2}{}}
\@writefile{lot}{\contentsline {table}{\numberline {2}{log4j Callback Domains\strut  }}{88}{table.9.2}\protected@file@percent }
\newlabel{_pattern/Pattern:id6}{{2}{88}{log4j Callback Domains\strut }{table.9.2}{}}
\gdef \LT@viii {\LT@entry 
    {1}{483.69687pt}}
\newlabel{9.footnote.1}{{1}{219}{log4j \sphinxhyphen {} Callback Domains}{section*.191}{}}
\gdef \LT@ix {\LT@entry 
    {1}{483.69687pt}}
\@writefile{toc}{\contentsline {chapter}{\numberline {10}ndaal \sphinxhyphen {} Vulnerabilities \sphinxhyphen {} log4j \sphinxhyphen {} Hashes}{220}{chapter.10}\protected@file@percent }
\@writefile{lof}{\addvspace {10\p@ }}
\@writefile{lot}{\addvspace {10\p@ }}
\newlabel{_hashes/Hashes:ndaal-vulnerabilities-log4j-hashes}{{10}{220}{ndaal \sphinxhyphen {} Vulnerabilities \sphinxhyphen {} log4j \sphinxhyphen {} Hashes}{chapter.10}{}}
\newlabel{_hashes/Hashes::doc}{{10}{220}{ndaal \sphinxhyphen {} Vulnerabilities \sphinxhyphen {} log4j \sphinxhyphen {} Hashes}{chapter.10}{}}
\newlabel{_hashes/Hashes:id19}{{10}{220}{ndaal \sphinxhyphen {} Vulnerabilities \sphinxhyphen {} log4j \sphinxhyphen {} Hashes}{section*.192}{}}
\newlabel{_hashes/Hashes:id20}{{10}{220}{ndaal \sphinxhyphen {} Vulnerabilities \sphinxhyphen {} log4j \sphinxhyphen {} Hashes}{section*.193}{}}
\newlabel{_hashes/Hashes:id21}{{10}{220}{ndaal \sphinxhyphen {} Vulnerabilities \sphinxhyphen {} log4j \sphinxhyphen {} Hashes}{section*.194}{}}
\newlabel{_hashes/Hashes:id22}{{10}{220}{ndaal \sphinxhyphen {} Vulnerabilities \sphinxhyphen {} log4j \sphinxhyphen {} Hashes}{section*.195}{}}
\newlabel{_hashes/Hashes:id23}{{10}{220}{ndaal \sphinxhyphen {} Vulnerabilities \sphinxhyphen {} log4j \sphinxhyphen {} Hashes}{section*.196}{}}
\newlabel{_hashes/Hashes:id24}{{10}{220}{ndaal \sphinxhyphen {} Vulnerabilities \sphinxhyphen {} log4j \sphinxhyphen {} Hashes}{section*.197}{}}
\newlabel{_hashes/Hashes:id25}{{10}{220}{ndaal \sphinxhyphen {} Vulnerabilities \sphinxhyphen {} log4j \sphinxhyphen {} Hashes}{section*.198}{}}
\newlabel{_hashes/Hashes:id26}{{10}{220}{ndaal \sphinxhyphen {} Vulnerabilities \sphinxhyphen {} log4j \sphinxhyphen {} Hashes}{section*.199}{}}
\newlabel{_hashes/Hashes:id27}{{10}{220}{ndaal \sphinxhyphen {} Vulnerabilities \sphinxhyphen {} log4j \sphinxhyphen {} Hashes}{section*.200}{}}
\newlabel{_hashes/Hashes:section-hashes}{{10}{220}{ndaal \sphinxhyphen {} Vulnerabilities \sphinxhyphen {} log4j \sphinxhyphen {} Hashes}{section*.201}{}}
\@writefile{toc}{\contentsline {section}{\numberline {10.1}Checkums by Apache}{220}{section.10.1}\protected@file@percent }
\newlabel{_hashes/Hashes:checkums-by-apache}{{10.1}{220}{Checkums by Apache}{section.10.1}{}}
\@writefile{toc}{\contentsline {subsection}{\numberline {10.1.1}md5sum by Apache}{220}{subsection.10.1.1}\protected@file@percent }
\newlabel{_hashes/Hashes:md5sum-by-apache}{{10.1.1}{220}{md5sum by Apache}{subsection.10.1.1}{}}
\@writefile{lot}{\contentsline {table}{\numberline {1}{log4j hashes md5\strut  }}{220}{table.10.1}\protected@file@percent }
\newlabel{_hashes/Hashes:id15}{{1}{220}{log4j hashes md5\strut }{table.10.1}{}}
\newlabel{10.footnote.1}{{1}{220}{ndaal \sphinxhyphen {} Vulnerabilities \sphinxhyphen {} log4j \sphinxhyphen {} Hashes}{section*.202}{}}
\newlabel{10.footnote.2}{{2}{220}{ndaal \sphinxhyphen {} Vulnerabilities \sphinxhyphen {} log4j \sphinxhyphen {} Hashes}{section*.203}{}}
\gdef \LT@x {\LT@entry 
    {1}{483.69687pt}}
\@writefile{toc}{\contentsline {subsection}{\numberline {10.1.2}sha1sum by Apache}{226}{subsection.10.1.2}\protected@file@percent }
\newlabel{_hashes/Hashes:sha1sum-by-apache}{{10.1.2}{226}{sha1sum by Apache}{subsection.10.1.2}{}}
\@writefile{lot}{\contentsline {table}{\numberline {2}{log4j hashes sha1\strut  }}{226}{table.10.2}\protected@file@percent }
\newlabel{_hashes/Hashes:id16}{{2}{226}{log4j hashes sha1\strut }{table.10.2}{}}
\gdef \LT@xi {\LT@entry 
    {1}{483.69687pt}}
\@writefile{toc}{\contentsline {subsection}{\numberline {10.1.3}sha256sum by Apache}{231}{subsection.10.1.3}\protected@file@percent }
\newlabel{_hashes/Hashes:sha256sum-by-apache}{{10.1.3}{231}{sha256sum by Apache}{subsection.10.1.3}{}}
\@writefile{lot}{\contentsline {table}{\numberline {3}{log4j hashes sha256\strut  }}{231}{table.10.3}\protected@file@percent }
\newlabel{_hashes/Hashes:id17}{{3}{231}{log4j hashes sha256\strut }{table.10.3}{}}
\gdef \LT@xii {\LT@entry 
    {1}{483.69687pt}}
\@writefile{toc}{\contentsline {subsection}{\numberline {10.1.4}sha512sum by Apache}{238}{subsection.10.1.4}\protected@file@percent }
\newlabel{_hashes/Hashes:sha512sum-by-apache}{{10.1.4}{238}{sha512sum by Apache}{subsection.10.1.4}{}}
\@writefile{lot}{\contentsline {table}{\numberline {4}{log4j hashes sha512\strut  }}{238}{table.10.4}\protected@file@percent }
\newlabel{_hashes/Hashes:id18}{{4}{238}{log4j hashes sha512\strut }{table.10.4}{}}
\@writefile{toc}{\contentsline {subsection}{\numberline {10.1.5}other topic}{241}{subsection.10.1.5}\protected@file@percent }
\newlabel{_hashes/Hashes:other-topic}{{10.1.5}{241}{other topic}{subsection.10.1.5}{}}
\@writefile{toc}{\contentsline {section}{\numberline {10.2}vulnerable log4j hashes by other sources}{241}{section.10.2}\protected@file@percent }
\newlabel{_hashes/Hashes:vulnerable-log4j-hashes-by-other-sources}{{10.2}{241}{vulnerable log4j hashes by other sources}{section.10.2}{}}
\@writefile{toc}{\contentsline {section}{\numberline {10.3}Evaluating if a log4j JAR is vulnerable}{241}{section.10.3}\protected@file@percent }
\newlabel{_hashes/Hashes:evaluating-if-a-log4j-jar-is-vulnerable}{{10.3}{241}{Evaluating if a log4j JAR is vulnerable}{section.10.3}{}}
\newlabel{10.footnote.3}{{3}{241}{sha512sum by Apache}{section*.204}{}}
\newlabel{10.footnote.4}{{4}{241}{other topic}{section*.205}{}}
\newlabel{10.footnote.5}{{5}{241}{other topic}{section*.206}{}}
\newlabel{10.footnote.6}{{6}{241}{vulnerable log4j hashes by other sources}{section*.207}{}}
\newlabel{10.footnote.7}{{7}{241}{vulnerable log4j hashes by other sources}{section*.208}{}}
\@writefile{toc}{\contentsline {chapter}{\numberline {11}Java Packages}{242}{chapter.11}\protected@file@percent }
\@writefile{lof}{\addvspace {10\p@ }}
\@writefile{lot}{\addvspace {10\p@ }}
\newlabel{_Java/Packages:java-packages}{{11}{242}{Java Packages}{chapter.11}{}}
\newlabel{_Java/Packages::doc}{{11}{242}{Java Packages}{chapter.11}{}}
\newlabel{_Java/Packages:id4}{{11}{242}{Java Packages}{section*.209}{}}
\newlabel{_Java/Packages:section-java-packages}{{11}{242}{Java Packages}{section*.210}{}}
\@writefile{lot}{\contentsline {table}{\numberline {1}{500 most\sphinxhyphen {}used and impacted Java code packages\strut  }}{242}{table.11.1}\protected@file@percent }
\newlabel{_Java/Packages:id3}{{1}{242}{500 most\sphinxhyphen {}used and impacted Java code packages\strut }{table.11.1}{}}
\newlabel{11.footnote.1}{{1}{242}{Java Packages}{section*.211}{}}
\gdef \LT@xiii {\LT@entry 
    {1}{372.07451pt}\LT@entry 
    {1}{55.81117pt}\LT@entry 
    {1}{55.81117pt}}
\@writefile{toc}{\contentsline {chapter}{\numberline {12}ndaal \sphinxhyphen {} Vulnerabilities \sphinxhyphen {} log4j \sphinxhyphen {} Germany \sphinxhyphen {} German}{274}{chapter.12}\protected@file@percent }
\@writefile{lof}{\addvspace {10\p@ }}
\@writefile{lot}{\addvspace {10\p@ }}
\newlabel{Germany:ndaal-vulnerabilities-log4j-germany-german}{{12}{274}{ndaal \sphinxhyphen {} Vulnerabilities \sphinxhyphen {} log4j \sphinxhyphen {} Germany \sphinxhyphen {} German}{chapter.12}{}}
\newlabel{Germany::doc}{{12}{274}{ndaal \sphinxhyphen {} Vulnerabilities \sphinxhyphen {} log4j \sphinxhyphen {} Germany \sphinxhyphen {} German}{chapter.12}{}}
\newlabel{Germany:id44}{{12}{274}{ndaal \sphinxhyphen {} Vulnerabilities \sphinxhyphen {} log4j \sphinxhyphen {} Germany \sphinxhyphen {} German}{section*.212}{}}
\newlabel{Germany:id45}{{12}{274}{ndaal \sphinxhyphen {} Vulnerabilities \sphinxhyphen {} log4j \sphinxhyphen {} Germany \sphinxhyphen {} German}{section*.213}{}}
\newlabel{Germany:id46}{{12}{274}{ndaal \sphinxhyphen {} Vulnerabilities \sphinxhyphen {} log4j \sphinxhyphen {} Germany \sphinxhyphen {} German}{section*.214}{}}
\newlabel{Germany:id47}{{12}{274}{ndaal \sphinxhyphen {} Vulnerabilities \sphinxhyphen {} log4j \sphinxhyphen {} Germany \sphinxhyphen {} German}{section*.215}{}}
\newlabel{Germany:id48}{{12}{274}{ndaal \sphinxhyphen {} Vulnerabilities \sphinxhyphen {} log4j \sphinxhyphen {} Germany \sphinxhyphen {} German}{section*.216}{}}
\newlabel{Germany:id49}{{12}{274}{ndaal \sphinxhyphen {} Vulnerabilities \sphinxhyphen {} log4j \sphinxhyphen {} Germany \sphinxhyphen {} German}{section*.217}{}}
\newlabel{Germany:section-overview}{{12}{274}{ndaal \sphinxhyphen {} Vulnerabilities \sphinxhyphen {} log4j \sphinxhyphen {} Germany \sphinxhyphen {} German}{section*.218}{}}
\@writefile{toc}{\contentsline {section}{\numberline {12.1}Zusammenfassung}{274}{section.12.1}\protected@file@percent }
\newlabel{Germany:zusammenfassung}{{12.1}{274}{Zusammenfassung}{section.12.1}{}}
\@writefile{toc}{\contentsline {section}{\numberline {12.2}Hessische Beauftragte für Datenschutz und Informationsfreiheit}{274}{section.12.2}\protected@file@percent }
\newlabel{Germany:hessische-beauftragte-fur-datenschutz-und-informationsfreiheit}{{12.2}{274}{Hessische Beauftragte für Datenschutz und Informationsfreiheit}{section.12.2}{}}
\newlabel{12.footnote.1}{{1}{274}{Hessische Beauftragte für Datenschutz und Informationsfreiheit}{section*.219}{}}
\newlabel{12.footnote.2}{{2}{274}{Hessische Beauftragte für Datenschutz und Informationsfreiheit}{section*.220}{}}
\newlabel{12.footnote.3}{{3}{274}{Hessische Beauftragte für Datenschutz und Informationsfreiheit}{section*.221}{}}
\@writefile{toc}{\contentsline {section}{\numberline {12.3}BSI}{275}{section.12.3}\protected@file@percent }
\newlabel{Germany:bsi}{{12.3}{275}{BSI}{section.12.3}{}}
\newlabel{12.footnote.12}{{12}{275}{BSI}{section*.222}{}}
\newlabel{12.footnote.13}{{13}{275}{BSI}{section*.223}{}}
\newlabel{12.footnote.14}{{14}{275}{BSI}{section*.224}{}}
\newlabel{12.footnote.20}{{20}{275}{BSI}{section*.225}{}}
\newlabel{12.footnote.15}{{15}{275}{BSI}{section*.226}{}}
\@writefile{toc}{\contentsline {section}{\numberline {12.4}Weiterführende Links}{276}{section.12.4}\protected@file@percent }
\newlabel{Germany:weiterfuhrende-links}{{12.4}{276}{Weiterführende Links}{section.12.4}{}}
\newlabel{footnotemark.13}{{13}{276}{Weiterführende Links}{sphinxfootnotemark.13}{}}
\@writefile{toc}{\contentsline {section}{\numberline {12.5}Hinweise}{276}{section.12.5}\protected@file@percent }
\newlabel{Germany:hinweise}{{12.5}{276}{Hinweise}{section.12.5}{}}
\newlabel{12.footnote.16}{{16}{276}{BSI}{section*.227}{}}
\newlabel{12.footnote.17}{{17}{276}{BSI}{section*.228}{}}
\newlabel{12.footnote.18}{{18}{276}{BSI}{section*.229}{}}
\newlabel{12.footnote.4}{{4}{276}{Weiterführende Links}{section*.230}{}}
\newlabel{12.footnote.5}{{5}{276}{Weiterführende Links}{section*.231}{}}
\newlabel{12.footnote.6}{{6}{276}{Weiterführende Links}{section*.232}{}}
\newlabel{12.footnote.7}{{7}{276}{Weiterführende Links}{section*.233}{}}
\newlabel{12.footnote.8}{{8}{276}{Weiterführende Links}{section*.234}{}}
\newlabel{12.footnote.9}{{9}{276}{Weiterführende Links}{section*.235}{}}
\newlabel{12.footnote.10}{{10}{276}{Weiterführende Links}{section*.236}{}}
\newlabel{12.footnote.21}{{21}{277}{Hinweise}{section*.237}{}}
\newlabel{12.footnote.22}{{22}{277}{Hinweise}{section*.238}{}}
\@writefile{toc}{\contentsline {chapter}{\numberline {13}Document Information}{278}{chapter.13}\protected@file@percent }
\@writefile{lof}{\addvspace {10\p@ }}
\@writefile{lot}{\addvspace {10\p@ }}
\newlabel{_document/Document:document-information}{{13}{278}{Document Information}{chapter.13}{}}
\newlabel{_document/Document::doc}{{13}{278}{Document Information}{chapter.13}{}}
\newlabel{_document/Document:id9}{{13}{278}{Document Information}{section*.239}{}}
\newlabel{_document/Document:id10}{{13}{278}{Document Information}{section*.240}{}}
\newlabel{_document/Document:id11}{{13}{278}{Document Information}{section*.241}{}}
\newlabel{_document/Document:id12}{{13}{278}{Document Information}{section*.242}{}}
\newlabel{_document/Document:id13}{{13}{278}{Document Information}{section*.243}{}}
\newlabel{_document/Document:id14}{{13}{278}{Document Information}{section*.244}{}}
\newlabel{_document/Document:id15}{{13}{278}{Document Information}{section*.245}{}}
\newlabel{_document/Document:id16}{{13}{278}{Document Information}{section*.246}{}}
\newlabel{_document/Document:id17}{{13}{278}{Document Information}{section*.247}{}}
\newlabel{_document/Document:id18}{{13}{278}{Document Information}{section*.248}{}}
\newlabel{_document/Document:id19}{{13}{278}{Document Information}{section*.249}{}}
\newlabel{_document/Document:id20}{{13}{278}{Document Information}{section*.250}{}}
\newlabel{_document/Document:id21}{{13}{278}{Document Information}{section*.251}{}}
\@writefile{toc}{\contentsline {section}{\numberline {13.1}Summary}{278}{section.13.1}\protected@file@percent }
\newlabel{_document/Document:summary}{{13.1}{278}{Summary}{section.13.1}{}}
\newlabel{_document/Document:id1}{{13.1}{278}{Summary}{section.13.1}{}}
\@writefile{toc}{\contentsline {section}{\numberline {13.2}Introduction Semantic Versioning Scheme}{278}{section.13.2}\protected@file@percent }
\newlabel{_document/Document:introduction-semantic-versioning-scheme}{{13.2}{278}{Introduction Semantic Versioning Scheme}{section.13.2}{}}
\newlabel{13.footnote.1}{{1}{278}{Introduction Semantic Versioning Scheme}{section*.252}{}}
\@writefile{toc}{\contentsline {subsection}{\numberline {13.2.1}Major}{279}{subsection.13.2.1}\protected@file@percent }
\newlabel{_document/Document:major}{{13.2.1}{279}{Major}{subsection.13.2.1}{}}
\@writefile{toc}{\contentsline {subsection}{\numberline {13.2.2}Minor}{279}{subsection.13.2.2}\protected@file@percent }
\newlabel{_document/Document:minor}{{13.2.2}{279}{Minor}{subsection.13.2.2}{}}
\@writefile{toc}{\contentsline {subsection}{\numberline {13.2.3}Patch}{279}{subsection.13.2.3}\protected@file@percent }
\newlabel{_document/Document:patch}{{13.2.3}{279}{Patch}{subsection.13.2.3}{}}
\gdef \LT@xiv {\LT@entry 
    {1}{72.55453pt}\LT@entry 
    {1}{72.55453pt}\LT@entry 
    {1}{169.2939pt}\LT@entry 
    {1}{169.2939pt}}
\@writefile{toc}{\contentsline {subsection}{\numberline {13.2.4}Pre\sphinxhyphen {}Release and Build}{280}{subsection.13.2.4}\protected@file@percent }
\newlabel{_document/Document:pre-release-and-build}{{13.2.4}{280}{Pre\sphinxhyphen {}Release and Build}{subsection.13.2.4}{}}
\@writefile{toc}{\contentsline {subsection}{\numberline {13.2.5}Development SemVer}{280}{subsection.13.2.5}\protected@file@percent }
\newlabel{_document/Document:development-semver}{{13.2.5}{280}{Development SemVer}{subsection.13.2.5}{}}
\newlabel{footnotemark.14}{{14}{280}{Development SemVer}{sphinxfootnotemark.14}{}}
\@writefile{toc}{\contentsline {section}{\numberline {13.3}Document Information}{280}{section.13.3}\protected@file@percent }
\newlabel{_document/Document:id5}{{13.3}{280}{Document Information}{section.13.3}{}}
\@writefile{toc}{\contentsline {subsection}{\numberline {13.3.1}Document History}{280}{subsection.13.3.1}\protected@file@percent }
\newlabel{_document/Document:document-history}{{13.3.1}{280}{Document History}{subsection.13.3.1}{}}
\@writefile{lot}{\contentsline {table}{\numberline {1}{Document History\strut  }}{280}{table.13.1}\protected@file@percent }
\newlabel{_document/Document:id8}{{1}{280}{Document History\strut }{table.13.1}{}}
\newlabel{13.footnote.2}{{2}{280}{Development SemVer}{section*.253}{}}
\@writefile{toc}{\contentsline {subsection}{\numberline {13.3.2}General Equal Treatment Act}{290}{subsection.13.3.2}\protected@file@percent }
\newlabel{_document/Document:general-equal-treatment-act}{{13.3.2}{290}{General Equal Treatment Act}{subsection.13.3.2}{}}
\@writefile{toc}{\contentsline {subsection}{\numberline {13.3.3}Validity}{290}{subsection.13.3.3}\protected@file@percent }
\newlabel{_document/Document:validity}{{13.3.3}{290}{Validity}{subsection.13.3.3}{}}
\@writefile{toc}{\contentsline {subsection}{\numberline {13.3.4}Target group \sphinxhyphen {} Qualified personnel}{290}{subsection.13.3.4}\protected@file@percent }
\newlabel{_document/Document:target-group-qualified-personnel}{{13.3.4}{290}{Target group \sphinxhyphen {} Qualified personnel}{subsection.13.3.4}{}}
\@writefile{toc}{\contentsline {chapter}{\numberline {14}ndaal \sphinxhyphen {} General Information}{291}{chapter.14}\protected@file@percent }
\@writefile{lof}{\addvspace {10\p@ }}
\@writefile{lot}{\addvspace {10\p@ }}
\newlabel{_legal/Information:ndaal-general-information}{{14}{291}{ndaal \sphinxhyphen {} General Information}{chapter.14}{}}
\newlabel{_legal/Information::doc}{{14}{291}{ndaal \sphinxhyphen {} General Information}{chapter.14}{}}
\newlabel{_legal/Information:id1}{{14}{291}{ndaal \sphinxhyphen {} General Information}{section*.254}{}}
\newlabel{_legal/Information:id2}{{14}{291}{ndaal \sphinxhyphen {} General Information}{section*.255}{}}
\newlabel{_legal/Information:id3}{{14}{291}{ndaal \sphinxhyphen {} General Information}{section*.256}{}}
\newlabel{_legal/Information:id4}{{14}{291}{ndaal \sphinxhyphen {} General Information}{section*.257}{}}
\newlabel{_legal/Information:id5}{{14}{291}{ndaal \sphinxhyphen {} General Information}{section*.258}{}}
\newlabel{_legal/Information:id6}{{14}{291}{ndaal \sphinxhyphen {} General Information}{section*.259}{}}
\@writefile{toc}{\contentsline {section}{\numberline {14.1}General Information}{291}{section.14.1}\protected@file@percent }
\newlabel{_legal/Information:general-information}{{14.1}{291}{General Information}{section.14.1}{}}
\@writefile{toc}{\contentsline {section}{\numberline {14.2}Opening Clause}{291}{section.14.2}\protected@file@percent }
\newlabel{_legal/Information:opening-clause}{{14.2}{291}{Opening Clause}{section.14.2}{}}
\@writefile{toc}{\contentsline {section}{\numberline {14.3}Disclaimer}{292}{section.14.3}\protected@file@percent }
\newlabel{_legal/Information:disclaimer}{{14.3}{292}{Disclaimer}{section.14.3}{}}
\@writefile{toc}{\contentsline {section}{\numberline {14.4}Rights of Use}{292}{section.14.4}\protected@file@percent }
\newlabel{_legal/Information:rights-of-use}{{14.4}{292}{Rights of Use}{section.14.4}{}}
\@writefile{toc}{\contentsline {section}{\numberline {14.5}No duty to update}{292}{section.14.5}\protected@file@percent }
\newlabel{_legal/Information:no-duty-to-update}{{14.5}{292}{No duty to update}{section.14.5}{}}
\@writefile{toc}{\contentsline {chapter}{Contact}{293}{section*.261}\protected@file@percent }
\oddpage@label{2}{293}
\pgfsyspdfmark {pgfid2}{35428917}{1864680}
\newlabel{LastPage}{{}{0}{}{page.0}{}}
\xdef\lastpage@lastpage{0}
\xdef\lastpage@lastpageHy{0}
\gdef \@abspage@last{297}
