<?xml version="1.0" encoding="utf-8"?>
<!-- Generator: Adobe Illustrator 25.4.1, SVG Export Plug-In . SVG Version: 6.00 Build 0)  -->
<svg version="1.1" id="Ebene_1" xmlns="http://www.w3.org/2000/svg" xmlns:xlink="http://www.w3.org/1999/xlink" x="0px" y="0px"
	 viewBox="0 0 283.5 226.8" style="enable-background:new 0 0 283.5 226.8;" xml:space="preserve">
<style type="text/css">
	.st0{fill:#8A1719;stroke:#8A1719;stroke-width:1.4173;stroke-miterlimit:10;}
	.st1{fill:#8A1719;}
	.st2{fill:#575756;}
</style>
<path class="st0" d="M55.5,124.5c9.1-17.5,20.8-36.1,26.7-34.4c4.8,1.4,5.9,8.4,7,15.7c1.2,8.1,2.5,16.5,9.3,18.2
	c1,0.3,2.1,0.4,3.2,0.4c12.3,0,27.3-17.8,38.5-45.5l-2.5,0c-11.5,28.6-27,45.8-38.6,42.8c-5.4-1.4-6.5-8.6-7.6-16.4
	c-1.2-7.8-2.3-16-8.6-17.6c-8.4-2.2-21.8,20.9-29.9,36.6L55.5,124.5z"/>
<g>
	<path class="st1" d="M148.9,102.3V116c0,4.9-3.1,8.1-7.4,8.1c-4.8,0-7.6-3.7-7.6-8c0-4.1,3.3-7.3,7.1-7.3c1.5,0,2.9,0.3,4.2,1v2.8
		c-1-0.7-2.5-1.3-3.7-1.3c-2.9,0-4.9,2-4.9,5.1c0,3,2,5.1,4.9,5.1c2.6,0,4.7-2,4.7-6v-13.2H148.9z"/>
	<path class="st1" d="M163.2,123.8v-8.3c0-2.8-2.3-4.2-4.8-4.2c-3,0-4.9,2.4-4.9,5.2c0,2.7,2,5,4.8,5c1.5,0,2.8-0.9,3.7-2v3.2
		c-1.1,0.8-2.1,1.4-4,1.4c-4.2,0-7.2-3.5-7.2-7.8c0-4.2,2.9-7.5,7.6-7.5c4.5,0,7.4,2.8,7.4,7v8H163.2z"/>
	<path class="st1" d="M180.3,123.8v-8.3c0-2.8-2.3-4.2-4.8-4.2c-3,0-4.9,2.4-4.9,5.2c0,2.7,2,5,4.8,5c1.5,0,2.8-0.9,3.7-2v3.2
		c-1.1,0.8-2.1,1.4-4,1.4c-4.2,0-7.2-3.5-7.2-7.8c0-4.2,2.9-7.5,7.6-7.5c4.5,0,7.4,2.8,7.4,7v8H180.3z"/>
	<path class="st1" d="M186.3,123.8v-21.5h2.7v21.5H186.3z"/>
</g>
<g>
	<path class="st2" d="M54.6,138c0.4,0,0.6,0.3,0.6,0.6c0,0.3-0.2,0.6-0.6,0.6s-0.6-0.3-0.6-0.6C53.9,138.3,54.2,138,54.6,138z
		 M54.1,145.7v-5.8h1.1v5.8H54.1z"/>
	<path class="st2" d="M56.8,145.7v-3.4c0-1.5,1.1-2.5,2.5-2.5c1.4,0,2.5,1,2.5,2.5v3.4h-1.1v-3.4c0-0.9-0.6-1.5-1.4-1.5
		c-0.8,0-1.4,0.6-1.4,1.5v3.4H56.8z"/>
	<path class="st2" d="M62.9,145.7v-6.3c0-1.3,0.9-2.1,2-2.1h0.9v1h-0.7c-0.7,0-1.1,0.3-1.1,1.1v0.6h1.7v1h-1.7v4.7H62.9z"/>
	<path class="st2" d="M68.9,139.8c1.6,0,3,1.2,3,3c0,1.8-1.4,3-3,3c-1.6,0-3-1.2-3-3C65.9,141,67.3,139.8,68.9,139.8z M68.9,144.8
		c1.1,0,1.9-0.8,1.9-2c0-1.2-0.8-2-1.9-2c-1.1,0-1.9,0.8-1.9,2C67,144,67.8,144.8,68.9,144.8z"/>
	<path class="st2" d="M72.8,139.9h1v0.7h0c0.4-0.6,0.9-0.8,1.6-0.8h0.2v1h-0.2c-1,0-1.6,0.6-1.6,2.2v2.7h-1.1V139.9z"/>
	<path class="st2" d="M76.2,145.7v-3.9c0-1.1,0.9-2,2.1-2c0.6,0,1.3,0.3,1.7,0.8c0.4-0.6,1-0.8,1.7-0.8c1.2,0,2.1,0.9,2.1,2v3.9
		h-1.1V142c0-0.7-0.4-1.2-1-1.2c-0.7,0-1.1,0.4-1.1,1.4v3.5h-1.1v-3.5c0-1-0.4-1.4-1.1-1.4c-0.6,0-1,0.5-1,1.2v3.7H76.2z"/>
	<path class="st2" d="M89.4,145.7v-3.2c0-1.1-0.9-1.6-1.9-1.6c-1.2,0-1.9,0.9-1.9,2c0,1.1,0.8,2,1.9,2c0.6,0,1.1-0.3,1.5-0.8v1.2
		c-0.4,0.3-0.8,0.6-1.6,0.6c-1.7,0-2.8-1.4-2.8-3.1c0-1.6,1.1-2.9,3-2.9c1.8,0,2.9,1.1,2.9,2.7v3.1H89.4z"/>
	<path class="st2" d="M94.8,140.9h-2.1v3c0,0.5,0.3,0.7,0.8,0.7h1.3v1h-1.4c-1.1,0-1.7-0.7-1.7-1.9v-5.3h1.1v1.4h2.1V140.9z"/>
	<path class="st2" d="M96.6,138c0.4,0,0.6,0.3,0.6,0.6c0,0.3-0.2,0.6-0.6,0.6c-0.4,0-0.6-0.3-0.6-0.6C96,138.3,96.2,138,96.6,138z
		 M96.1,145.7v-5.8h1.1v5.8H96.1z"/>
	<path class="st2" d="M101.6,139.8c1.6,0,3,1.2,3,3c0,1.8-1.4,3-3,3c-1.6,0-3-1.2-3-3C98.6,141,100,139.8,101.6,139.8z M101.6,144.8
		c1.1,0,1.9-0.8,1.9-2c0-1.2-0.8-2-1.9-2c-1.1,0-1.9,0.8-1.9,2C99.7,144,100.5,144.8,101.6,144.8z"/>
	<path class="st2" d="M105.5,145.7v-3.4c0-1.5,1.1-2.5,2.5-2.5s2.5,1,2.5,2.5v3.4h-1.1v-3.4c0-0.9-0.6-1.5-1.4-1.5
		c-0.8,0-1.4,0.6-1.4,1.5v3.4H105.5z"/>
	<path class="st2" d="M114.6,144.7h3c0.5,0,0.7-0.2,0.7-0.6c0-1.1-3.6-0.6-3.6-2.6c0-1,0.7-1.6,2-1.6h2.5v1h-2.7
		c-0.5,0-0.7,0.1-0.7,0.5c0,1,3.6,0.6,3.6,2.6c0,1.1-0.8,1.6-1.8,1.6h-3V144.7z"/>
	<path class="st2" d="M121.8,143.8l-0.4-0.8l2.8-1.6c-0.4-0.4-0.7-0.6-1.3-0.6c-1.1,0-1.9,0.8-1.9,2c0,1.2,0.8,2,1.9,2
		c1.2,0,1.7-0.7,1.9-1.8l1.1,0.1c-0.1,1.5-1.3,2.7-3,2.7c-1.6,0-3-1.2-3-3c0-1.8,1.4-3,3-3c1.3,0,2.2,0.7,2.8,1.8L121.8,143.8z"/>
	<path class="st2" d="M130.7,140.9h-0.8c-1,0-2,0.6-2,1.9c0,1.2,1,1.9,2,1.9h0.8v1h-1c-1.3,0-2.9-1-2.9-2.9c0-1.8,1.5-2.9,2.9-2.9h1
		V140.9z"/>
	<path class="st2" d="M136.4,139.9v3.4c0,1.5-1.1,2.5-2.5,2.5s-2.5-1-2.5-2.5v-3.4h1.1v3.4c0,0.9,0.6,1.5,1.4,1.5
		c0.8,0,1.4-0.6,1.4-1.5v-3.4H136.4z"/>
	<path class="st2" d="M137.5,139.9h1v0.7h0c0.4-0.6,0.9-0.8,1.6-0.8h0.2v1h-0.2c-1,0-1.6,0.6-1.6,2.2v2.7h-1.1V139.9z"/>
	<path class="st2" d="M141.9,138c0.4,0,0.6,0.3,0.6,0.6c0,0.3-0.2,0.6-0.6,0.6c-0.4,0-0.6-0.3-0.6-0.6
		C141.3,138.3,141.5,138,141.9,138z M141.4,145.7v-5.8h1.1v5.8H141.4z"/>
	<path class="st2" d="M147.4,140.9h-2.1v3c0,0.5,0.3,0.7,0.8,0.7h1.3v1H146c-1.1,0-1.7-0.7-1.7-1.9v-5.3h1.1v1.4h2.1V140.9z"/>
	<path class="st2" d="M149.3,139.9v3.5c0,0.8,0.5,1.4,1.3,1.4s1.3-0.6,1.3-1.4v-3.5h1.1v3.5c0,1.3-0.6,2.1-1.9,2.4v2.5h-1.1v-2.5
		c-1.2-0.3-1.9-1.1-1.9-2.4v-3.5H149.3z"/>
	<path class="st2" d="M162.9,138.4h-3.3c-0.2,0-0.2,0.1-0.2,0.2c0,0.1,0.1,0.3,0.3,0.5l3.5,4.5c0.2-0.3,0.3-0.6,0.3-1.1
		c0-0.6-0.2-1.1-0.8-1.8l0.8-0.8c0.7,0.8,1.2,1.5,1.2,2.6c0,0.7-0.2,1.4-0.6,2l1,1.3h-1.4l-0.4-0.5c-0.6,0.4-1.4,0.6-2.1,0.6
		c-2,0-3.5-1.4-3.5-3.4c0-1.1,0.5-2.2,1.4-2.8c-0.3-0.3-0.6-0.7-0.6-1.2c0-0.7,0.5-1.2,1.2-1.2h3.5V138.4z M159.4,140.5
		c-0.6,0.5-0.9,1.2-0.9,1.9c0,1.3,1,2.4,2.4,2.4c0.6,0,1.1-0.1,1.5-0.5L159.4,140.5z"/>
	<path class="st2" d="M172.7,140.9h-0.8c-1,0-2,0.6-2,1.9c0,1.2,1,1.9,2,1.9h0.8v1h-1c-1.3,0-2.9-1-2.9-2.9c0-1.8,1.5-2.9,2.9-2.9h1
		V140.9z"/>
	<path class="st2" d="M176.3,139.8c1.6,0,3,1.2,3,3c0,1.8-1.4,3-3,3c-1.6,0-3-1.2-3-3C173.3,141,174.7,139.8,176.3,139.8z
		 M176.3,144.8c1.1,0,1.9-0.8,1.9-2c0-1.2-0.8-2-1.9-2c-1.1,0-1.9,0.8-1.9,2C174.4,144,175.2,144.8,176.3,144.8z"/>
	<path class="st2" d="M180.2,145.7v-3.9c0-1.1,0.9-2,2.1-2c0.6,0,1.3,0.3,1.7,0.8c0.4-0.6,1-0.8,1.7-0.8c1.2,0,2.1,0.9,2.1,2v3.9
		h-1.1V142c0-0.7-0.4-1.2-1-1.2c-0.7,0-1.1,0.4-1.1,1.4v3.5h-1.1v-3.5c0-1-0.4-1.4-1.1-1.4c-0.6,0-1,0.5-1,1.2v3.7H180.2z"/>
	<path class="st2" d="M188.8,148.3V143c0-1.9,1.2-3.2,2.9-3.2c1.9,0,3,1.4,3,3.1c0,1.6-1.3,2.9-2.8,2.9c-0.6,0-1.1-0.1-1.6-0.4v-1.1
		c0.4,0.3,1,0.5,1.5,0.5c1.1,0,1.9-0.8,1.9-2c0-1.2-0.8-2-1.9-2c-1,0-1.8,0.8-1.8,2.4v5.1H188.8z"/>
	<path class="st2" d="M195.8,145.7v-8.4h1.1v8.4H195.8z"/>
	<path class="st2" d="M199.3,138c0.4,0,0.6,0.3,0.6,0.6c0,0.3-0.2,0.6-0.6,0.6c-0.4,0-0.6-0.3-0.6-0.6
		C198.7,138.3,198.9,138,199.3,138z M198.8,145.7v-5.8h1.1v5.8H198.8z"/>
	<path class="st2" d="M206.1,145.7v-3.2c0-1.1-0.9-1.6-1.9-1.6c-1.2,0-1.9,0.9-1.9,2c0,1.1,0.8,2,1.9,2c0.6,0,1.1-0.3,1.5-0.8v1.2
		c-0.4,0.3-0.8,0.6-1.6,0.6c-1.7,0-2.8-1.4-2.8-3.1c0-1.6,1.1-2.9,3-2.9c1.8,0,2.9,1.1,2.9,2.7v3.1H206.1z"/>
	<path class="st2" d="M208.2,145.7v-3.4c0-1.5,1.1-2.5,2.5-2.5s2.5,1,2.5,2.5v3.4H212v-3.4c0-0.9-0.6-1.5-1.4-1.5
		c-0.8,0-1.4,0.6-1.4,1.5v3.4H208.2z"/>
	<path class="st2" d="M218,140.9h-0.8c-1,0-2,0.6-2,1.9c0,1.2,1,1.9,2,1.9h0.8v1h-1c-1.3,0-2.9-1-2.9-2.9c0-1.8,1.5-2.9,2.9-2.9h1
		V140.9z"/>
	<path class="st2" d="M220.5,143.8l-0.4-0.8l2.8-1.6c-0.4-0.4-0.7-0.6-1.3-0.6c-1.1,0-1.9,0.8-1.9,2c0,1.2,0.8,2,1.9,2
		c1.2,0,1.7-0.7,1.9-1.8l1.1,0.1c-0.1,1.5-1.3,2.7-3,2.7c-1.6,0-3-1.2-3-3c0-1.8,1.4-3,3-3c1.3,0,2.2,0.7,2.8,1.8L220.5,143.8z"/>
</g>
</svg>
