# 2.x Versions
685125b7b8bbd7c2f58259937090ac2ae9bcb129  ./apache-log4j-2.0-alpha2-bin/log4j-core-2.0-alpha2.jar
7058796a0aa49ea21ea2cc7bf9dece0d3b8942ae  ./apache-log4j-2.0-beta1-bin/log4j-core-2.0-beta1.jar
b5f9c15e1fb18d84193ac10e4bfb88af1724f5cd  ./apache-log4j-2.0-beta2-bin/log4j-core-2.0-beta2.jar
80b690d982b030fb2f04854407744ff44e0b72ea  ./apache-log4j-2.0-beta3-bin/log4j-core-2.0-beta3.jar
8f87799c2bd24c120812ed3d5271b743cfc999b5  ./apache-log4j-2.0-beta4-bin/log4j-core-2.0-beta4.jar
b853dec96e815981280fb9a1cc08332a6ed946f9  ./apache-log4j-2.0-beta5-bin/log4j-core-2.0-beta5.jar
1fb514bfbec10815d68953ed2fc4dd8c98ee245f  ./apache-log4j-2.0-beta6-bin/log4j-core-2.0-beta6.jar
a727fe8e718b18d541f67077c99b2ca129f77065  ./apache-log4j-2.0-beta7-bin/log4j-core-2.0-beta7.jar
f6ed9c56c8d58c4670059ddf417df23c9a78ff30  ./apache-log4j-2.0-beta8-bin/log4j-core-2.0-beta8.jar
678861ba1b2e1fccb594bb0ca03114bb05da9695  ./apache-log4j-2.0-beta9-bin/log4j-core-2.0-beta9.jar
7621fe28ce0122d96006bdb56c8e2cfb2a3afb92  ./apache-log4j-2.0-bin/log4j-core-2.0.jar
4363cdf913a584fe8fa72cf4c0eaae181ef7d1eb  ./apache-log4j-2.0-rc1-bin/log4j-core-2.0-rc1.jar
2e8d52acfc8c2bbbaa7baf9f3678826c354f5405  ./apache-log4j-2.0-rc2-bin/log4j-core-2.0-rc2.jar
895130076efaf6dcafb741ed7e97f2d346903708  ./apache-log4j-2.0.1-bin/log4j-core-2.0.1.jar
13521c5364501478e28c77a7f86b90b6ed5dbb77  ./apache-log4j-2.0.2-bin/log4j-core-2.0.2.jar
31823dcde108f2ea4a5801d1acc77869d7696533  ./apache-log4j-2.1-bin/log4j-core-2.1.jar
c707664e020218f8529b9a5e55016ee15f0f82ac  ./apache-log4j-2.2-bin/log4j-core-2.2.jar
58a3e964db5307e30650817c5daac1e8c8ede648  ./apache-log4j-2.3-bin/log4j-core-2.3.jar
0d99532ba3603f27bebf4cdd3653feb0e0b84cf6  ./apache-log4j-2.4-bin/log4j-core-2.4.jar
a5334910f90944575147fd1c1aef9f407c24db99  ./apache-log4j-2.4.1-bin/log4j-core-2.4.1.jar
7ed845de1dfe070d43511fab321784e6c4118398  ./apache-log4j-2.5-bin/log4j-core-2.5.jar
a7cb258b9c36f49c148834a3a35b53fe73c28777  ./apache-log4j-2.6-bin/log4j-core-2.6.jar
2b557bf1023c3a3a0f7f200fafcd7641b89cbb83  ./apache-log4j-2.6.1-bin/log4j-core-2.6.1.jar
00a91369f655eb1639c6aece5c5eb5108db18306  ./apache-log4j-2.6.2-bin/log4j-core-2.6.2.jar
a3f2b4e64c61a7fc1ed8f1e5ba371933404ed98a  ./apache-log4j-2.7-bin/log4j-core-2.7.jar
2be463a710be42bb6b4831b980f0d270b98ff233  ./apache-log4j-2.8-bin/log4j-core-2.8.jar
4ac28ff2f1ddf05dae3043a190451e8c46b73c31  ./apache-log4j-2.8.1-bin/log4j-core-2.8.1.jar
979fc0cf8460302e4ffbfe38c1b66a99450b0bb7  ./apache-log4j-2.8.2-bin/log4j-core-2.8.2.jar
ff857555cec4635c272286a260dbd7979c89d5b8  ./apache-log4j-2.9.0-bin/log4j-core-2.9.0.jar
8c59f9db4e5eebf7e99aa0ed2eb129bd5d8ef4f8  ./apache-log4j-2.9.1-bin/log4j-core-2.9.1.jar
989bbd2b84eba4b88a4b2a889393fac5b297e1df  ./apache-log4j-2.10.0-bin/log4j-core-2.10.0.jar
3b1c23b9117786e23cc3be6224b484d77c50c1f2  ./apache-log4j-2.11.0-bin/log4j-core-2.11.0.jar
38b9c3790c99cef205a890db876c89fd9238706c  ./apache-log4j-2.11.1-bin/log4j-core-2.11.1.jar
5bcfefcd7474c2f439576a1839ea0aeeec07f3b6  ./apache-log4j-2.11.2-bin/log4j-core-2.11.2.jar
73fe23297ccf73bad25a04e089d9627f8bf3041f  ./apache-log4j-2.12.0-bin/log4j-core-2.12.0.jar
c28f281548582ec68376e66dbde48be24fcdb457  ./apache-log4j-2.12.1-bin/log4j-core-2.12.1.jar
ef568faca168deee9adbe6f42ca8f4de6ca4557b  ./apache-log4j-2.13.0-bin/log4j-core-2.13.0.jar
5eb5ab96f8fc087135ef969ed99c76b64d255d44  ./apache-log4j-2.13.1-bin/log4j-core-2.13.1.jar
16f7b2f63b0290281294c2cbc4f26ba32f71de34  ./apache-log4j-2.13.2-bin/log4j-core-2.13.2.jar
6556d71742808e4324eabc500bd7f2cc8c004440  ./apache-log4j-2.13.3-bin/log4j-core-2.13.3.jar
94bc1813a537b3b5c04f9b4adead3c434f364a70  ./apache-log4j-2.14.0-bin/log4j-core-2.14.0.jar
c476bd8acb6e7e55f14195a88fa8802687fcf542  ./apache-log4j-2.14.1-bin/log4j-core-2.14.1.jar
e7dc681a6da4f2f203dccd1068a1ea090f67a057  ./log4j-2.0-alpha1/log4j-core-2.0-alpha1.jar
/2.0-beta9/apache-log4j-2.0-beta9-bin/log4j-core-2.0-beta9.jar
4363cdf913a584fe8fa72cf4c0eaae181ef7d1eb  ./2.0-rc1/apache-log4j-2.0-rc1-bin/log4j-core-2.0-rc1.jar
2e8d52acfc8c2bbbaa7baf9f3678826c354f5405  ./2.0-rc2/apache-log4j-2.0-rc2-bin/log4j-core-2.0-rc2.jar
7621fe28ce0122d96006bdb56c8e2cfb2a3afb92  ./2.0/apache-log4j-2.0-bin/log4j-core-2.0.jar
895130076efaf6dcafb741ed7e97f2d346903708  ./2.0.1/apache-log4j-2.0.1-bin/log4j-core-2.0.1.jar
13521c5364501478e28c77a7f86b90b6ed5dbb77  ./2.0.2/apache-log4j-2.0.2-bin/log4j-core-2.0.2.jar
31823dcde108f2ea4a5801d1acc77869d7696533  ./2.1/apache-log4j-2.1-bin/log4j-core-2.1.jar
c707664e020218f8529b9a5e55016ee15f0f82ac  ./2.2/apache-log4j-2.2-bin/log4j-core-2.2.jar
58a3e964db5307e30650817c5daac1e8c8ede648  ./2.3/apache-log4j-2.3-bin/log4j-core-2.3.jar
0d99532ba3603f27bebf4cdd3653feb0e0b84cf6  ./2.4/apache-log4j-2.4-bin/log4j-core-2.4.jar
a5334910f90944575147fd1c1aef9f407c24db99  ./2.4.1/apache-log4j-2.4.1-bin/log4j-core-2.4.1.jar
7ed845de1dfe070d43511fab321784e6c4118398  ./2.5/apache-log4j-2.5-bin/log4j-core-2.5.jar
a7cb258b9c36f49c148834a3a35b53fe73c28777  ./2.6/apache-log4j-2.6-bin/log4j-core-2.6.jar
2b557bf1023c3a3a0f7f200fafcd7641b89cbb83  ./2.6.1/apache-log4j-2.6.1-bin/log4j-core-2.6.1.jar
00a91369f655eb1639c6aece5c5eb5108db18306  ./2.6.2/apache-log4j-2.6.2-bin/log4j-core-2.6.2.jar
a3f2b4e64c61a7fc1ed8f1e5ba371933404ed98a  ./2.7/apache-log4j-2.7-bin/log4j-core-2.7.jar
2be463a710be42bb6b4831b980f0d270b98ff233  ./2.8/apache-log4j-2.8-bin/log4j-core-2.8.jar
4ac28ff2f1ddf05dae3043a190451e8c46b73c31  ./2.8.1/apache-log4j-2.8.1-bin/log4j-core-2.8.1.jar
979fc0cf8460302e4ffbfe38c1b66a99450b0bb7  ./2.8.2/apache-log4j-2.8.2-bin/log4j-core-2.8.2.jar
ff857555cec4635c272286a260dbd7979c89d5b8  ./2.9.0/apache-log4j-2.9.0-bin/log4j-core-2.9.0.jar
8c59f9db4e5eebf7e99aa0ed2eb129bd5d8ef4f8  ./2.9.1/apache-log4j-2.9.1-bin/log4j-core-2.9.1.jar
989bbd2b84eba4b88a4b2a889393fac5b297e1df  ./2.10.0/apache-log4j-2.10.0-bin/log4j-core-2.10.0.jar
3b1c23b9117786e23cc3be6224b484d77c50c1f2  ./2.11.0/apache-log4j-2.11.0-bin/log4j-core-2.11.0.jar
38b9c3790c99cef205a890db876c89fd9238706c  ./2.11.1/apache-log4j-2.11.1-bin/log4j-core-2.11.1.jar
5bcfefcd7474c2f439576a1839ea0aeeec07f3b6  ./2.11.2/apache-log4j-2.11.2-bin/log4j-core-2.11.2.jar
73fe23297ccf73bad25a04e089d9627f8bf3041f  ./2.12.0/apache-log4j-2.12.0-bin/log4j-core-2.12.0.jar
c28f281548582ec68376e66dbde48be24fcdb457  ./2.12.1/apache-log4j-2.12.1-bin/log4j-core-2.12.1.jar
ef568faca168deee9adbe6f42ca8f4de6ca4557b  ./2.13.0/apache-log4j-2.13.0-bin/log4j-core-2.13.0.jar
5eb5ab96f8fc087135ef969ed99c76b64d255d44  ./2.13.1/apache-log4j-2.13.1-bin/log4j-core-2.13.1.jar
16f7b2f63b0290281294c2cbc4f26ba32f71de34  ./2.13.2/apache-log4j-2.13.2-bin/log4j-core-2.13.2.jar
6556d71742808e4324eabc500bd7f2cc8c004440  ./2.13.3/apache-log4j-2.13.3-bin/log4j-core-2.13.3.jar
94bc1813a537b3b5c04f9b4adead3c434f364a70  ./2.14.0/apache-log4j-2.14.0-bin/log4j-core-2.14.0.jar
c476bd8acb6e7e55f14195a88fa8802687fcf542  ./2.14.1/apache-log4j-2.14.1-bin/log4j-core-2.14.1.jar
9bd89149d5083a2a3ab64dcc88b0227da14152ec  ./2.15.0/apache-log4j-2.15.0-bin/log4j-core-2.15.0.jar
