| 0e40a74639ad4ffe9c066696a221dda505d36c59fc9bd4c56625da1c696d6b0c  ./1.0.4/jakarta-log4j-1.0.4/log4j-core.jar
| 4e148a5018f7d1366680f2e8843222b24ad2752f4594eeeb4617d5ef2fced555  ./1.0.4/jakarta-log4j-1.0.4/log4j.jar
| befc966efaff129ba622bb86a8f6788e8e65becc84e503eba11b5b83fcedff65  ./1.1.3/jakarta-log4j-1.1.3/dist/lib/log4j-core.jar
| 635d4be0003f9b24f560a7835db59fef04d1102bac75824c5f1c6ae48aa626a9  ./1.1.3/jakarta-log4j-1.1.3/dist/lib/log4j.jar
| f9abe266a488b6b14c4ad4d65a5887d875fcbd0ff85ab515f17f01652c5c0f5e  ./1.2beta4/jakarta-log4j-1.2beta4/dist/lib/log4j-1.2beta4.jar
| 57b8491b20b08fbe346bdd258b01186d2fd376bd3cbde74c1d13448396a638da  ./1.2rc1/jakarta-log4j-1.2rc1/dist/lib/log4j-1.2rc1.jar
| ec5ff8fc4b74a9edd65f49e4cd8fea1acad2f4491c36d1975f7551ebe400bb5c  ./1.2.1/jakarta-log4j-1.2.1/dist/lib/log4j-1.2.1.jar
| d012436776129418f448e0f6efaa23eba3099187c2c81e5758a528ff14515253  ./1.2.2/jakarta-log4j-1.2.2/dist/lib/log4j-1.2.2.jar
| 6532c7056c610e4ca7491edfc7daf0ca377582e84c683be5950b1917b3da0efd  ./1.2.3/jakarta-log4j-1.2.3/dist/lib/log4j-1.2.3.jar
| a621e49ebe90457c4c0c96e58e3c59ce5c730e1ed6e7685d46828d0dae089c94  ./1.2.4/jakarta-log4j-1.2.4/dist/lib/log4j-1.2.4.jar
| 7ccd71557650d5b8b2e78a9ec0810a8d1376404fb0bec505475622dd13733c14  ./1.2.5/jakarta-log4j-1.2.5/dist/lib/log4j-1.2.5.jar
| de9639bbf4179bf880e9649fc7e92b8fa6875212e9d1bcbb59dee8707cb17832  ./1.2.6/jakarta-log4j-1.2.6/dist/lib/log4j-1.2.6.jar
| aa04b7d49d0c4c3c2d4605a3dda1796c440a1fdf1ea99d6fe2931ca3986dfd35  ./1.2.7/jakarta-log4j-1.2.7/dist/lib/log4j-1.2.7.jar
| c316595a68f7bc74ee0931e0c4435481cdeddc91c95d2cb78eada107c5b01a65  ./1.2.8/jakarta-log4j-1.2.8/dist/lib/log4j-1.2.8.jar
| d2b9dfb297bcaa7be1fcdd702642a9c9713d7847dca8704e9c15bd829f0ab1bf  ./1.2.9/logging-log4j-1.2.9/dist/lib/log4j-1.2.9.jar
| 8a6bc785a8e52a97ea76d7e21e591526222669c4262ed7b91daa9c72fcf6cd07  ./1.2.11/logging-log4j-1.2.11/dist/lib/log4j-1.2.11.jar
| dc67378cf428c06408e7959e83bdc1518dd22ccd313e7c28a986612d65c276c7  ./1.2.12/logging-log4j-1.2.12/dist/lib/log4j-1.2.12.jar
| c8ed615889a62d7957c4ea44b0d1d290b9f308c88edabac325526957259d7f14  ./1.2.13/logging-log4j-1.2.13/dist/lib/log4j-1.2.13.jar
| e3bff9ab64a09b1ac2800f3b5fb1e3d99728064acb6dd3924938507638a404fb  ./1.2.14/logging-log4j-1.2.14/dist/lib/log4j-1.2.14.jar
| 9f5f5799707881451a39c1b2dd22b4e43b97a80698db7daf1c9697f545e24387  ./1.2.15/apache-log4j-1.2.15/log4j-1.2.15.jar
| 47351e6cafed77a4bcc8871f4fcc017ae62fcf6eb286862c4963e288d9a02ffc  ./1.2.16/apache-log4j-1.2.16/log4j-1.2.16.jar
| a2234476879b9e76f99a561f3d9da243684edb54b0b44ef7c0cf7a1a3d1e6776  ./1.2.17/apache-log4j-1.2.17/log4j-1.2.17.jar
| 1d31696445697720527091754369082a6651bd49781b6005deb94e56753406f9  ./1.2.17/log4j-1.2.17.jar
| c15e6684b27e21f3c764907e39766a9b43fca7484abcdc0911ce9c6d5e6395cc  ./1.3alpha-1/logging-log4j-1.3alpha-1/log4j-1.3alpha-1.jar
| 41487586711f83071ae22e4c155d0d5e90b3edd795eca2298b3ef0bbfe734fc6  ./1.3alpha-3/logging-log4j-1.3alpha-3/log4j-1.3alpha-3.jar
| 9be3ac4a9363ec30fd3660bf0d9f2a80a2b7ece62e8b33ffe8f941c49b965c77  ./1.3alpha-5/logging-log4j-1.3alpha-5/log4j-1.3alpha-5.jar
| 41d45530a2c44af8eb58701441d93a202ef0cd0185a4c02903e67f98b53dac6d  ./1.3alpha-6/logging-log4j-1.3alpha-6/log4j-1.3alpha-6.jar
| fe8de070123ffa8bb5c7490671de80ba23fd90cc8a199483b96d08699fc59d9e  ./1.3alpha-7/logging-log4j-1.3alpha-7/log4j-1.3alpha-7.jar
| b12788f04f503ac30b24333547546abdd16d5d54f6f20ecc7c49cc25676ded1a  ./1.3alpha-8/logging-log4j-1.3alpha-8/lib/log4j-1.3alpha-8.jar
| 006fc6623fbb961084243cfc327c885f3c57f2eba8ee05fbc4e93e5358778c85  ./2.0-alpha1/log4j-2.0-alpha1/log4j-core-2.0-alpha1.jar
| bf4f41403280c1b115650d470f9b260a5c9042c04d9bcc2a6ca504a66379b2d6  ./2.0-alpha2/apache-log4j-2.0-alpha2-bin/log4j-core-2.0-alpha2.jar
| 58e9f72081efff9bdaabd82e3b3efe5b1b9f1666cefe28f429ad7176a6d770ae  ./2.0-beta1/apache-log4j-2.0-beta1-bin/log4j-core-2.0-beta1.jar
| ed285ad5ac6a8cf13461d6c2874fdcd3bf67002844831f66e21c2d0adda43fa4  ./2.0-beta2/apache-log4j-2.0-beta2-bin/log4j-core-2.0-beta2.jar
| dbf88c623cc2ad99d82fa4c575fb105e2083465a47b84d64e2e1a63e183c274e  ./2.0-beta3/apache-log4j-2.0-beta3-bin/log4j-core-2.0-beta3.jar
| a38ddff1e797adb39a08876932bc2538d771ff7db23885fb883fec526aff4fc8  ./2.0-beta4/apache-log4j-2.0-beta4-bin/log4j-core-2.0-beta4.jar
| 7d86841489afd1097576a649094ae1efb79b3147cd162ba019861dfad4e9573b  ./2.0-beta5/apache-log4j-2.0-beta5-bin/log4j-core-2.0-beta5.jar
| 4bfb0d5022dc499908da4597f3e19f9f64d3cc98ce756a2249c72179d3d75c47  ./2.0-beta6/apache-log4j-2.0-beta6-bin/log4j-core-2.0-beta6.jar
| 473f15c04122dad810c919b2f3484d46560fd2dd4573f6695d387195816b02a6  ./2.0-beta7/apache-log4j-2.0-beta7-bin/log4j-core-2.0-beta7.jar
| b3fae4f84d4303cdbad4696554b4e8d2381ad3faf6e0c3c8d2ce60a4388caa02  ./2.0-beta8/apache-log4j-2.0-beta8-bin/log4j-core-2.0-beta8.jar
| dcde6033b205433d6e9855c93740f798951fa3a3f252035a768d9f356fde806d  ./2.0-beta9/apache-log4j-2.0-beta9-bin/log4j-core-2.0-beta9.jar
| db3906edad6009d1886ec1e2a198249b6d99820a3575f8ec80c6ce57f08d521a  ./2.0-rc1/apache-log4j-2.0-rc1-bin/log4j-core-2.0-rc1.jar
| ec411a34fee49692f196e4dc0a905b25d0667825904862fdba153df5e53183e0  ./2.0-rc2/apache-log4j-2.0-rc2-bin/log4j-core-2.0-rc2.jar
| 85338f694c844c8b66d8a1b981bcf38627f95579209b2662182a009d849e1a4c  ./2.0/apache-log4j-2.0-bin/log4j-core-2.0.jar
| a00a54e3fb8cb83fab38f8714f240ecc13ab9c492584aa571aec5fc71b48732d  ./2.0.1/apache-log4j-2.0.1-bin/log4j-core-2.0.1.jar
| c584d1000591efa391386264e0d43ec35f4dbb146cad9390f73358d9c84ee78d  ./2.0.2/apache-log4j-2.0.2-bin/log4j-core-2.0.2.jar
| 8bdb662843c1f4b120fb4c25a5636008085900cdf9947b1dadb9b672ea6134dc  ./2.1/apache-log4j-2.1-bin/log4j-core-2.1.jar
| c830cde8f929c35dad42cbdb6b28447df69ceffe99937bf420d32424df4d076a  ./2.2/apache-log4j-2.2-bin/log4j-core-2.2.jar
| 6ae3b0cb657e051f97835a6432c2b0f50a651b36b6d4af395bbe9060bb4ef4b2  ./2.3/apache-log4j-2.3-bin/log4j-core-2.3.jar
| 535e19bf14d8c76ec00a7e8490287ca2e2597cae2de5b8f1f65eb81ef1c2a4c6  ./2.4/apache-log4j-2.4-bin/log4j-core-2.4.jar
| 42de36e61d454afff5e50e6930961c85b55d681e23931efd248fd9b9b9297239  ./2.4.1/apache-log4j-2.4.1-bin/log4j-core-2.4.1.jar
| 4f53e4d52efcccdc446017426c15001bb0fe444c7a6cdc9966f8741cf210d997  ./2.5/apache-log4j-2.5-bin/log4j-core-2.5.jar
| df00277045338ceaa6f70a7b8eee178710b3ba51eac28c1142ec802157492de6  ./2.6/apache-log4j-2.6-bin/log4j-core-2.6.jar
| 28433734bd9e3121e0a0b78238d5131837b9dbe26f1a930bc872bad44e68e44e  ./2.6.1/apache-log4j-2.6.1-bin/log4j-core-2.6.1.jar
| cf65f0d33640f2cd0a0b06dd86a5c6353938ccb25f4ffd14116b4884181e0392  ./2.6.2/apache-log4j-2.6.2-bin/log4j-core-2.6.2.jar
| 5bb84e110d5f18cee47021a024d358227612dd6dac7b97fa781f85c6ad3ccee4  ./2.7/apache-log4j-2.7-bin/log4j-core-2.7.jar
| ccf02bb919e1a44b13b366ea1b203f98772650475f2a06e9fac4b3c957a7c3fa  ./2.8/apache-log4j-2.8-bin/log4j-core-2.8.jar
| 815a73e20e90a413662eefe8594414684df3d5723edcd76070e1a5aee864616e  ./2.8.1/apache-log4j-2.8.1-bin/log4j-core-2.8.1.jar
| 10ef331115cbbd18b5be3f3761e046523f9c95c103484082b18e67a7c36e570c  ./2.8.2/apache-log4j-2.8.2-bin/log4j-core-2.8.2.jar
| dc815be299f81c180aa8d2924f1b015f2c46686e866bc410e72de75f7cd41aae  ./2.9.0/apache-log4j-2.9.0-bin/log4j-core-2.9.0.jar
| 9275f5d57709e2204900d3dae2727f5932f85d3813ad31c9d351def03dd3d03d  ./2.9.1/apache-log4j-2.9.1-bin/log4j-core-2.9.1.jar
| f35ccc9978797a895e5bee58fa8c3b7ad6d5ee55386e9e532f141ee8ed2e937d  ./2.10.0/apache-log4j-2.10.0-bin/log4j-core-2.10.0.jar
| 5256517e6237b888c65c8691f29219b6658d800c23e81d5167c4a8bbd2a0daa3  ./2.11.0/apache-log4j-2.11.0-bin/log4j-core-2.11.0.jar
| d4485176aea67cc85f5ccc45bb66166f8bfc715ae4a695f0d870a1f8d848cc3d  ./2.11.1/apache-log4j-2.11.1-bin/log4j-core-2.11.1.jar
| 3fcc4c1f2f806acfc395144c98b8ba2a80fe1bf5e3ad3397588bbd2610a37100  ./2.11.2/apache-log4j-2.11.2-bin/log4j-core-2.11.2.jar
| 057a48fe378586b6913d29b4b10162b4b5045277f1be66b7a01fb7e30bd05ef3  ./2.12.0/apache-log4j-2.12.0-bin/log4j-core-2.12.0.jar
| 5dbd6bb2381bf54563ea15bc9fbb6d7094eaf7184e6975c50f8996f77bfc3f2c  ./2.12.1/apache-log4j-2.12.1-bin/log4j-core-2.12.1.jar
| c39b0ea14e7766440c59e5ae5f48adee038d9b1c7a1375b376e966ca12c22cd3  ./2.13.0/apache-log4j-2.13.0-bin/log4j-core-2.13.0.jar
| 6f38a25482d82cd118c4255f25b9d78d96821d22bab498cdce9cda7a563ca992  ./2.13.1/apache-log4j-2.13.1-bin/log4j-core-2.13.1.jar
| 54962835992e303928aa909730ce3a50e311068c0960c708e82ab76701db5e6b  ./2.13.2/apache-log4j-2.13.2-bin/log4j-core-2.13.2.jar
| e5e9b0f8d72f4e7b9022b7a83c673334d7967981191d2d98f9c57dc97b4caae1  ./2.13.3/apache-log4j-2.13.3-bin/log4j-core-2.13.3.jar
| 68d793940c28ddff6670be703690dfdf9e77315970c42c4af40ca7261a8570fa  ./2.14.0/apache-log4j-2.14.0-bin/log4j-core-2.14.0.jar
| 9da0f5ca7c8eab693d090ae759275b9db4ca5acdbcfe4a63d3871e0b17367463  ./2.14.1/apache-log4j-2.14.1-bin/log4j-core-2.14.1.jar
| e7048ad52e3b6f1267b7ceb2c07200a5ce61271bcf59f98fd238bf60e4137932  ./2.15.0/apache-log4j-2.15.0-bin/log4j-core-2.15.0.jar
