| b7e948df6c6f57d903d990de2cc0270c1537b711285e9b6b91280db6ace38418fced713785b2c2
| 0512dd9a4238c2d1d0ceb414d9936df2ca110ff14993ae04dc  
| apache-log4j-2.17.1-bin.tar.gz
|
| 60f529405dbca8ba80afa50a4990f0f340a7ab04b3f001ac8009ca851aada1b1eb0695d5456660
| 9bcd5a52f79bd539268049172bfca27b5531739d1fe87470ac  
| apache-log4j-2.17.1-bin.zip
| 
| 21cdfca54eb0d6af261a5ae89ff98197473d9c0203b0ab530f3aef6c90957bfb95a423983c8a19
| d7fbab05ec194b6fad8e46628e32270dd8b94ddd194a1cb177  
| apache-log4j-2.17.1-src.tar.gz
| 
| a6cd459a16e1306d4c03b26f5e5eae9a2290ceb8e53fb57ceefb12c9380c20947687c4f9ae91a2
| 70dc5f9f2a8eab5613aed814dae1a2329b67eb71f8067439d4  
| apache-log4j-2.17.1-src.zip
| 
| b7e948df6c6f57d903d990de2cc0270c1537b711285e9b6b91280db6ace38418fced713785b2c2
| 0512dd9a4238c2d1d0ceb414d9936df2ca110ff14993ae04dc  
| apache-log4j-2.17.0-bin.tar.gz
| 
| 60f529405dbca8ba80afa50a4990f0f340a7ab04b3f001ac8009ca851aada1b1eb0695d5456660
| 9bcd5a52f79bd539268049172bfca27b5531739d1fe87470ac  
| apache-log4j-2.17.0-bin.zip
| 
| 21cdfca54eb0d6af261a5ae89ff98197473d9c0203b0ab530f3aef6c90957bfb95a423983c8a19
| d7fbab05ec194b6fad8e46628e32270dd8b94ddd194a1cb177  
| apache-log4j-2.17.0-src.tar.gz
| 
| a6cd459a16e1306d4c03b26f5e5eae9a2290ceb8e53fb57ceefb12c9380c20947687c4f9ae91a2
| 70dc5f9f2a8eab5613aed814dae1a2329b67eb71f8067439d4  
| apache-log4j-2.17.0-src.zip
| 
| 4d4f44caa138224080a91cedf99d3e207a1ea700382f7a20d2f9c665d3f45a54f8bab826579bf6
| a35c19d3409ea4f27145fe511b9efdfb2afb9a6b9eb60ecc74  
| apache-log4j-2.16.0-bin.tar.gz
| 
| 264b474dc6be49fe3f3dfbe5415f53e320f77efcc48b8fcf6bdf92b99346f7691bc6c91d33e5cd
| bd5ae88c3c40a4ae3d40ea629009d8ec0790a65ed749e84613  
| apache-log4j-2.16.0-bin.zip
| 
| c520a5af1ac4161f0b0c9cb466a0c6bf349cce567b8c1c1ee01fc0b0258852f0ef4f7a7967f367
| 168f4395e7fdd981fd35b7cb6d5f236b6421699bd2b1ccf919  
| apache-log4j-2.16.0-src.tar.gz
| 
| a552bfc58534260d06a4859cb1ed0f2c7490fd1f8673776e9e35eb542caf953ca7fb8192f8baa6
| e23c1bef5aea645def37268b9f2e4356ba6ba3268479a0b217  
| apache-log4j-2.16.0-src.zip
